<svg width="60" height="60" viewBox="0 0 60 60" fill="none" xmlns="http://www.w3.org/2000/svg">
<circle cx="30" cy="30" r="30" fill="#394B81"/>
<path d="M40.9717 30.0005H19.0283C18.8948 29.9964 18.7618 30.0191 18.6372 30.0674C18.5126 30.1157 18.399 30.1885 18.3031 30.2815C18.2072 30.3745 18.131 30.4859 18.0789 30.6089C18.0268 30.7319 18 30.8642 18 30.9978C18 31.1314 18.0268 31.2636 18.0789 31.3866C18.131 31.5097 18.2072 31.621 18.3031 31.714C18.399 31.807 18.5126 31.8798 18.6372 31.9281C18.7618 31.9764 18.8948 31.9992 19.0283 31.9951H40.9717C41.1052 31.9992 41.2382 31.9764 41.3628 31.9281C41.4874 31.8798 41.601 31.807 41.6969 31.714C41.7928 31.621 41.869 31.5097 41.9211 31.3866C41.9732 31.2636 42 31.1314 42 30.9978C42 30.8642 41.9732 30.7319 41.9211 30.6089C41.869 30.4859 41.7928 30.3745 41.6969 30.2815C41.601 30.1885 41.4874 30.1157 41.3628 30.0674C41.2382 30.0191 41.1052 29.9964 40.9717 30.0005Z" fill="white"/>
<path d="M30.8117 37.4009C30.7196 37.2716 30.598 37.1661 30.457 37.0933C30.316 37.0204 30.1596 36.9822 30.0009 36.9819C29.8486 36.982 29.6983 37.017 29.5616 37.0842C29.425 37.1515 29.3056 37.2493 29.2126 37.37L23.7235 42.8601C23.5365 43.0476 23.4317 43.3017 23.432 43.5665C23.4324 43.8313 23.5379 44.0851 23.7254 44.2721C23.9129 44.4591 24.167 44.5639 24.4318 44.5636C24.6966 44.5632 24.9504 44.4577 25.1374 44.2702L29.005 40.4026L28.9882 52.9415C28.9881 53.0726 29.0138 53.2023 29.0638 53.3234C29.1138 53.4445 29.1872 53.5546 29.2798 53.6473C29.3723 53.7401 29.4823 53.8137 29.6033 53.8639C29.7243 53.9142 29.854 53.9401 29.985 53.9402C30.2499 53.9402 30.5039 53.835 30.6912 53.6477C30.8785 53.4604 30.9837 53.2064 30.9837 52.9415L30.995 40.4045L34.8458 44.2552C35.0331 44.4424 35.2872 44.5474 35.552 44.5472C35.8168 44.547 36.0707 44.4417 36.2578 44.2543C36.4449 44.0669 36.5499 43.8129 36.5498 43.5481C36.5496 43.2833 36.4442 43.0294 36.2568 42.8423L30.8117 37.4009Z" fill="white"/>
<path d="M22.032 11.29V22H20.07V11.29H18.054V9.472H24.048V11.29H22.032ZM30.8672 12.532C30.8672 12.184 30.7892 11.872 30.6332 11.596C30.4892 11.32 30.2072 11.182 29.7872 11.182C29.5592 11.182 29.3732 11.236 29.2292 11.344C29.0852 11.44 28.9712 11.566 28.8872 11.722C28.8152 11.866 28.7612 12.034 28.7252 12.226C28.7012 12.406 28.6892 12.574 28.6892 12.73V19.03C28.6892 19.354 28.7672 19.648 28.9232 19.912C29.0912 20.164 29.3732 20.29 29.7692 20.29C30.1652 20.29 30.4472 20.158 30.6152 19.894C30.7832 19.618 30.8672 19.288 30.8672 18.904V12.532ZM32.8292 18.796C32.8292 19.888 32.5832 20.716 32.0912 21.28C31.5992 21.832 30.8252 22.108 29.7692 22.108C28.7132 22.108 27.9452 21.844 27.4652 21.316C26.9852 20.776 26.7452 20.002 26.7452 18.994V12.694C26.7452 12.202 26.7992 11.752 26.9072 11.344C27.0272 10.936 27.2072 10.588 27.4472 10.3C27.6872 10 27.9992 9.772 28.3832 9.616C28.7792 9.448 29.2472 9.364 29.7872 9.364C30.3632 9.364 30.8432 9.442 31.2272 9.598C31.6232 9.742 31.9352 9.958 32.1632 10.246C32.4032 10.534 32.5712 10.882 32.6672 11.29C32.7752 11.698 32.8292 12.16 32.8292 12.676V18.796ZM39.1596 9.472C40.3116 9.472 41.1516 9.772 41.6796 10.372C42.2196 10.972 42.4896 11.938 42.4896 13.27C42.4896 13.858 42.4356 14.392 42.3276 14.872C42.2196 15.352 42.0336 15.766 41.7696 16.114C41.5056 16.45 41.1576 16.714 40.7256 16.906C40.3056 17.098 39.7716 17.194 39.1236 17.194H38.3316V22H36.3876V9.472H39.1596ZM38.3316 11.308V15.34H39.0156C39.6156 15.34 40.0296 15.172 40.2576 14.836C40.4976 14.488 40.6176 13.972 40.6176 13.288C40.6176 12.676 40.5036 12.196 40.2756 11.848C40.0596 11.488 39.6516 11.308 39.0516 11.308H38.3316Z" fill="white"/>
</svg>
