<svg width="237" height="81" viewBox="0 0 237 81" fill="none" xmlns="http://www.w3.org/2000/svg">
<g clip-path="url(#clip0_296_12923)">
<path d="M174.026 37.1589V27.4986H175.539V37.1589H174.026ZM178.451 31.5376V37.1589H176.966V27.4986H178.312L179.478 30.3717C179.57 30.6123 179.663 30.8483 179.755 31.0796C179.848 31.3109 179.945 31.5469 180.047 31.7875L180.533 33.1199C180.551 33.1199 180.56 33.1199 180.56 33.1199C180.57 33.1107 180.584 33.106 180.602 33.106V27.4986H182.073V37.1589H180.755L179.589 34.2997C179.404 33.8278 179.219 33.3651 179.034 32.9117C178.858 32.4583 178.682 32.0003 178.506 31.5376H178.451ZM188.011 34.4107C188.011 34.8456 187.97 35.2389 187.886 35.5905C187.812 35.9329 187.683 36.229 187.498 36.4788C187.313 36.7194 187.063 36.9091 186.748 37.0479C186.443 37.1774 186.064 37.2422 185.61 37.2422C185.194 37.2422 184.833 37.1821 184.528 37.0618C184.231 36.9415 183.986 36.7749 183.792 36.5621C183.598 36.3493 183.454 36.0994 183.362 35.8126C183.278 35.5257 183.237 35.2204 183.237 34.8965L184.722 34.6051C184.74 34.9659 184.81 35.262 184.93 35.4934C185.05 35.7154 185.286 35.8265 185.638 35.8265C185.842 35.8265 186.003 35.7895 186.124 35.7154C186.244 35.6322 186.332 35.5257 186.387 35.3962C186.452 35.2667 186.489 35.1186 186.499 34.952C186.517 34.7855 186.526 34.6097 186.526 34.4246C186.526 34.1933 186.512 33.999 186.485 33.8417C186.457 33.6844 186.401 33.5502 186.318 33.4391C186.244 33.3281 186.133 33.231 185.985 33.1477C185.846 33.0644 185.661 32.9719 185.43 32.8701C184.967 32.6758 184.592 32.4768 184.305 32.2732C184.028 32.0697 183.815 31.8569 183.667 31.6348C183.519 31.4034 183.422 31.1629 183.376 30.913C183.329 30.6539 183.306 30.3717 183.306 30.0664C183.306 29.6777 183.352 29.3215 183.445 28.9976C183.537 28.6738 183.681 28.3962 183.875 28.1648C184.07 27.9242 184.315 27.7392 184.611 27.6096C184.916 27.4801 185.277 27.4153 185.693 27.4153C186.147 27.4153 186.522 27.4893 186.818 27.6374C187.114 27.7762 187.35 27.9566 187.526 28.1787C187.701 28.4008 187.826 28.646 187.9 28.9143C187.974 29.1827 188.011 29.4418 188.011 29.6916L186.526 30.0386C186.526 29.687 186.466 29.4001 186.346 29.178C186.226 28.956 185.99 28.8449 185.638 28.8449C185.453 28.8449 185.305 28.8819 185.194 28.956C185.092 29.03 185.009 29.1272 184.944 29.2474C184.879 29.3677 184.838 29.4973 184.819 29.6361C184.801 29.7749 184.791 29.9137 184.791 30.0525C184.791 30.219 184.801 30.3671 184.819 30.4966C184.838 30.6169 184.888 30.7326 184.972 30.8436C185.064 30.9547 185.198 31.0657 185.374 31.1767C185.55 31.2878 185.791 31.4034 186.096 31.5237C186.522 31.6903 186.859 31.8707 187.109 32.065C187.368 32.2501 187.563 32.4583 187.692 32.6896C187.822 32.9117 187.905 33.1662 187.942 33.453C187.988 33.7306 188.011 34.0499 188.011 34.4107ZM191.566 28.9005V37.1589H190.054V28.9005H188.499V27.4986H193.121V28.9005H191.566ZM193.924 37.1589V27.4986H195.437V37.1589H193.924ZM199.293 28.9005V37.1589H197.78V28.9005H196.225V27.4986H200.847V28.9005H199.293ZM206.258 27.5125V34.6883C206.258 35.5304 206.068 36.1688 205.689 36.6037C205.319 37.0294 204.727 37.2422 203.912 37.2422C203.098 37.2422 202.501 37.0386 202.122 36.6315C201.752 36.2151 201.567 35.6183 201.567 34.841V27.5125H203.066V34.8688C203.066 35.1186 203.126 35.3453 203.246 35.5489C203.376 35.7432 203.593 35.8404 203.898 35.8404C204.204 35.8404 204.421 35.7386 204.551 35.535C204.68 35.3222 204.745 35.0677 204.745 34.7716V27.5125H206.258ZM210.014 28.9005V37.1589H208.501V28.9005H206.947V27.4986H211.569V28.9005H210.014ZM212.344 37.1589V27.4986H216.633V28.9143H213.843V31.5376H216.272V32.9672H213.843V35.7432H216.633V37.1589H212.344ZM223.558 29.8582C223.558 29.5898 223.498 29.3492 223.378 29.1364C223.267 28.9236 223.049 28.8172 222.725 28.8172C222.55 28.8172 222.406 28.8588 222.295 28.9421C222.184 29.0161 222.096 29.1133 222.031 29.2336C221.976 29.3446 221.934 29.4742 221.906 29.6222C221.888 29.761 221.879 29.8905 221.879 30.0108V34.8688C221.879 35.1186 221.939 35.3453 222.059 35.5489C222.189 35.7432 222.406 35.8404 222.711 35.8404C223.017 35.8404 223.234 35.7386 223.364 35.535C223.493 35.3222 223.558 35.0677 223.558 34.7716V29.8582ZM225.071 34.6883C225.071 35.5304 224.881 36.1688 224.502 36.6037C224.123 37.0294 223.526 37.2422 222.711 37.2422C221.897 37.2422 221.305 37.0386 220.935 36.6315C220.565 36.2151 220.38 35.6183 220.38 34.841V29.9831C220.38 29.6037 220.421 29.2567 220.505 28.9421C220.597 28.6275 220.736 28.3591 220.921 28.1371C221.106 27.9057 221.347 27.7299 221.643 27.6096C221.948 27.4801 222.309 27.4153 222.725 27.4153C223.169 27.4153 223.54 27.4755 223.836 27.5958C224.141 27.7068 224.382 27.8733 224.557 28.0954C224.743 28.3175 224.872 28.5858 224.946 28.9005C225.029 29.2151 225.071 29.5713 225.071 29.9692V34.6883ZM227.926 28.9143V31.5376H230.355V32.9672H227.926V37.1589H226.427V27.4986H230.716V28.9143H227.926ZM234.546 37.1589V27.4986H238.835V28.9143H236.045V31.5376H238.474V32.9672H236.045V35.7432H238.835V37.1589H234.546ZM243.289 37.1589L242.914 35.1464H241.137C241.073 35.4795 241.008 35.8172 240.943 36.1596C240.887 36.4927 240.832 36.8258 240.776 37.1589H239.25C239.574 35.5396 239.897 33.9296 240.221 32.3288C240.545 30.728 240.869 29.1179 241.193 27.4986H242.858L244.815 37.1589H243.289ZM241.984 29.7332C241.891 30.3995 241.794 31.0657 241.693 31.7319C241.591 32.3889 241.48 33.0598 241.359 33.7445H242.678L242.053 29.7332H241.984ZM247.881 27.4986C248.668 27.4986 249.283 27.7207 249.727 28.1648C250.171 28.5997 250.393 29.3122 250.393 30.3023C250.393 30.913 250.305 31.4312 250.13 31.8569C249.963 32.2732 249.662 32.6017 249.228 32.8423L250.657 37.1589H249.13L247.881 33.1616H247.173V37.1589H245.674V27.4986H247.881ZM247.173 28.9143V31.7458H247.784C248.173 31.7458 248.459 31.6348 248.645 31.4127C248.83 31.1814 248.922 30.8159 248.922 30.3162C248.922 29.872 248.83 29.5297 248.645 29.2891C248.469 29.0393 248.173 28.9143 247.756 28.9143H247.173ZM254.026 28.9005V37.1589H252.513V28.9005H250.958V27.4986H255.58V28.9005H254.026ZM259.575 37.1589V32.9395H257.84V37.1589H256.355V27.4986H257.84V31.5376H259.575V27.4986H261.06V37.1589H259.575ZM178.537 51.4107C178.537 51.8456 178.495 52.2389 178.412 52.5905C178.338 52.9329 178.208 53.229 178.023 53.4788C177.838 53.7194 177.588 53.9091 177.274 54.0479C176.968 54.1774 176.589 54.2422 176.136 54.2422C175.719 54.2422 175.358 54.1821 175.053 54.0618C174.757 53.9415 174.512 53.7749 174.317 53.5621C174.123 53.3493 173.98 53.0994 173.887 52.8126C173.804 52.5257 173.762 52.2204 173.762 51.8965L175.247 51.6051C175.266 51.9659 175.335 52.262 175.455 52.4934C175.576 52.7154 175.812 52.8265 176.163 52.8265C176.367 52.8265 176.529 52.7895 176.649 52.7154C176.769 52.6322 176.857 52.5257 176.913 52.3962C176.978 52.2667 177.015 52.1186 177.024 51.952C177.042 51.7855 177.052 51.6097 177.052 51.4246C177.052 51.1933 177.038 50.999 177.01 50.8417C176.982 50.6844 176.927 50.5502 176.843 50.4391C176.769 50.3281 176.658 50.231 176.51 50.1477C176.372 50.0644 176.186 49.9719 175.955 49.8701C175.493 49.6758 175.118 49.4768 174.831 49.2732C174.553 49.0697 174.34 48.8569 174.192 48.6348C174.044 48.4034 173.947 48.1629 173.901 47.913C173.855 47.6539 173.832 47.3717 173.832 47.0664C173.832 46.6777 173.878 46.3215 173.97 45.9976C174.063 45.6738 174.206 45.3962 174.401 45.1648C174.595 44.9242 174.84 44.7392 175.136 44.6096C175.442 44.4801 175.802 44.4153 176.219 44.4153C176.672 44.4153 177.047 44.4893 177.343 44.6374C177.639 44.7762 177.875 44.9566 178.051 45.1787C178.227 45.4008 178.352 45.646 178.426 45.9143C178.5 46.1827 178.537 46.4418 178.537 46.6916L177.052 47.0386C177.052 46.687 176.992 46.4001 176.871 46.178C176.751 45.956 176.515 45.8449 176.163 45.8449C175.978 45.8449 175.83 45.8819 175.719 45.956C175.617 46.03 175.534 46.1272 175.469 46.2474C175.405 46.3677 175.363 46.4973 175.344 46.6361C175.326 46.7749 175.317 46.9137 175.317 47.0525C175.317 47.219 175.326 47.3671 175.344 47.4966C175.363 47.6169 175.414 47.7326 175.497 47.8436C175.59 47.9547 175.724 48.0657 175.9 48.1767C176.075 48.2878 176.316 48.4034 176.621 48.5237C177.047 48.6903 177.385 48.8707 177.635 49.065C177.894 49.2501 178.088 49.4583 178.218 49.6896C178.347 49.9117 178.43 50.1662 178.467 50.453C178.514 50.7306 178.537 51.0499 178.537 51.4107ZM181.967 44.4153C182.365 44.4153 182.707 44.4708 182.994 44.5819C183.281 44.6929 183.517 44.8502 183.702 45.0538C183.896 45.2481 184.035 45.4841 184.118 45.7617C184.211 46.03 184.257 46.3261 184.257 46.65L182.8 47.0247C182.8 46.6731 182.73 46.3862 182.592 46.1642C182.462 45.9421 182.249 45.8311 181.953 45.8311C181.777 45.8311 181.634 45.8681 181.523 45.9421C181.412 46.0161 181.324 46.1133 181.259 46.2336C181.204 46.3446 181.162 46.4695 181.134 46.6083C181.116 46.7379 181.106 46.8628 181.106 46.9831V51.8826C181.106 51.9752 181.116 52.077 181.134 52.188C181.153 52.299 181.19 52.4055 181.245 52.5072C181.31 52.5998 181.393 52.6784 181.495 52.7432C181.606 52.808 181.745 52.8404 181.911 52.8404C182.467 52.8404 182.749 52.4425 182.758 51.6467C183.008 51.693 183.258 51.7346 183.508 51.7716C183.757 51.7994 184.007 51.8318 184.257 51.8688C184.239 52.5998 184.035 53.1781 183.646 53.6037C183.267 54.0294 182.703 54.2422 181.953 54.2422C181.157 54.2422 180.57 54.0433 180.19 53.6454C179.811 53.2382 179.621 52.646 179.621 51.8688V47.0525C179.621 46.6916 179.658 46.3539 179.732 46.0393C179.816 45.7154 179.95 45.4332 180.135 45.1926C180.32 44.952 180.56 44.7623 180.857 44.6235C181.162 44.4847 181.532 44.4153 181.967 44.4153ZM185.371 54.1589V44.4986H186.884V54.1589H185.371ZM188.352 54.1589V44.4986H192.641V45.9143H189.851V48.5376H192.28V49.9672H189.851V52.7432H192.641V54.1589H188.352ZM195.069 48.5376V54.1589H193.583V44.4986H194.93L196.096 47.3717C196.188 47.6123 196.281 47.8483 196.373 48.0796C196.466 48.3109 196.563 48.5469 196.665 48.7875L197.15 50.1199C197.169 50.1199 197.178 50.1199 197.178 50.1199C197.188 50.1107 197.201 50.106 197.22 50.106V44.4986H198.691V54.1589H197.373L196.207 51.2997C196.022 50.8278 195.837 50.3651 195.651 49.9117C195.476 49.4583 195.3 49.0003 195.124 48.5376H195.069ZM202.353 44.4153C202.751 44.4153 203.093 44.4708 203.38 44.5819C203.667 44.6929 203.903 44.8502 204.088 45.0538C204.282 45.2481 204.421 45.4841 204.504 45.7617C204.597 46.03 204.643 46.3261 204.643 46.65L203.186 47.0247C203.186 46.6731 203.116 46.3862 202.978 46.1642C202.848 45.9421 202.635 45.8311 202.339 45.8311C202.163 45.8311 202.02 45.8681 201.909 45.9421C201.798 46.0161 201.71 46.1133 201.645 46.2336C201.59 46.3446 201.548 46.4695 201.52 46.6083C201.502 46.7379 201.492 46.8628 201.492 46.9831V51.8826C201.492 51.9752 201.502 52.077 201.52 52.188C201.539 52.299 201.576 52.4055 201.631 52.5072C201.696 52.5998 201.779 52.6784 201.881 52.7432C201.992 52.808 202.131 52.8404 202.297 52.8404C202.853 52.8404 203.135 52.4425 203.144 51.6467C203.394 51.693 203.644 51.7346 203.894 51.7716C204.143 51.7994 204.393 51.8318 204.643 51.8688C204.625 52.5998 204.421 53.1781 204.032 53.6037C203.653 54.0294 203.089 54.2422 202.339 54.2422C201.543 54.2422 200.956 54.0433 200.576 53.6454C200.197 53.2382 200.007 52.646 200.007 51.8688V47.0525C200.007 46.6916 200.044 46.3539 200.118 46.0393C200.202 45.7154 200.336 45.4332 200.521 45.1926C200.706 44.952 200.946 44.7623 201.243 44.6235C201.548 44.4847 201.918 44.4153 202.353 44.4153ZM205.729 54.1589V44.4986H210.018V45.9143H207.228V48.5376H209.657V49.9672H207.228V52.7432H210.018V54.1589H205.729ZM215.541 51.4107C215.541 51.8456 215.499 52.2389 215.416 52.5905C215.342 52.9329 215.212 53.229 215.027 53.4788C214.842 53.7194 214.592 53.9091 214.278 54.0479C213.972 54.1774 213.593 54.2422 213.139 54.2422C212.723 54.2422 212.362 54.1821 212.057 54.0618C211.761 53.9415 211.515 53.7749 211.321 53.5621C211.127 53.3493 210.983 53.0994 210.891 52.8126C210.808 52.5257 210.766 52.2204 210.766 51.8965L212.251 51.6051C212.27 51.9659 212.339 52.262 212.459 52.4934C212.58 52.7154 212.816 52.8265 213.167 52.8265C213.371 52.8265 213.533 52.7895 213.653 52.7154C213.773 52.6322 213.861 52.5257 213.917 52.3962C213.981 52.2667 214.018 52.1186 214.028 51.952C214.046 51.7855 214.055 51.6097 214.055 51.4246C214.055 51.1933 214.042 50.999 214.014 50.8417C213.986 50.6844 213.931 50.5502 213.847 50.4391C213.773 50.3281 213.662 50.231 213.514 50.1477C213.375 50.0644 213.19 49.9719 212.959 49.8701C212.496 49.6758 212.122 49.4768 211.835 49.2732C211.557 49.0697 211.344 48.8569 211.196 48.6348C211.048 48.4034 210.951 48.1629 210.905 47.913C210.858 47.6539 210.835 47.3717 210.835 47.0664C210.835 46.6777 210.882 46.3215 210.974 45.9976C211.067 45.6738 211.21 45.3962 211.404 45.1648C211.599 44.9242 211.844 44.7392 212.14 44.6096C212.445 44.4801 212.806 44.4153 213.223 44.4153C213.676 44.4153 214.051 44.4893 214.347 44.6374C214.643 44.7762 214.879 44.9566 215.055 45.1787C215.231 45.4008 215.356 45.646 215.43 45.9143C215.504 46.1827 215.541 46.4418 215.541 46.6916L214.055 47.0386C214.055 46.687 213.995 46.4001 213.875 46.178C213.755 45.956 213.519 45.8449 213.167 45.8449C212.982 45.8449 212.834 45.8819 212.723 45.956C212.621 46.03 212.538 46.1272 212.473 46.2474C212.408 46.3677 212.367 46.4973 212.348 46.6361C212.33 46.7749 212.32 46.9137 212.32 47.0525C212.32 47.219 212.33 47.3671 212.348 47.4966C212.367 47.6169 212.418 47.7326 212.501 47.8436C212.593 47.9547 212.728 48.0657 212.903 48.1767C213.079 48.2878 213.32 48.4034 213.625 48.5237C214.051 48.6903 214.389 48.8707 214.638 49.065C214.897 49.2501 215.092 49.4583 215.221 49.6896C215.351 49.9117 215.434 50.1662 215.471 50.453C215.517 50.7306 215.541 51.0499 215.541 51.4107ZM220.178 54.1589L219.804 52.1464H218.027C217.962 52.4795 217.897 52.8172 217.833 53.1596C217.777 53.4927 217.722 53.8258 217.666 54.1589H216.139C216.463 52.5396 216.787 50.9296 217.111 49.3288C217.435 47.728 217.759 46.1179 218.082 44.4986H219.748L221.705 54.1589H220.178ZM218.874 46.7332C218.781 47.3995 218.684 48.0657 218.582 48.7319C218.48 49.3889 218.369 50.0598 218.249 50.7445H219.568L218.943 46.7332H218.874ZM224.826 44.4153C225.224 44.4153 225.567 44.4708 225.853 44.5819C226.14 44.6929 226.376 44.8502 226.561 45.0538C226.756 45.2481 226.894 45.4841 226.978 45.7617C227.07 46.03 227.116 46.3261 227.116 46.65L225.659 47.0247C225.659 46.6731 225.59 46.3862 225.451 46.1642C225.321 45.9421 225.108 45.8311 224.812 45.8311C224.637 45.8311 224.493 45.8681 224.382 45.9421C224.271 46.0161 224.183 46.1133 224.118 46.2336C224.063 46.3446 224.021 46.4695 223.993 46.6083C223.975 46.7379 223.966 46.8628 223.966 46.9831V51.8826C223.966 51.9752 223.975 52.077 223.993 52.188C224.012 52.299 224.049 52.4055 224.105 52.5072C224.169 52.5998 224.253 52.6784 224.354 52.7432C224.465 52.808 224.604 52.8404 224.771 52.8404C225.326 52.8404 225.608 52.4425 225.617 51.6467C225.867 51.693 226.117 51.7346 226.367 51.7716C226.617 51.7994 226.867 51.8318 227.116 51.8688C227.098 52.5998 226.894 53.1781 226.506 53.6037C226.126 54.0294 225.562 54.2422 224.812 54.2422C224.017 54.2422 223.429 54.0433 223.05 53.6454C222.67 53.2382 222.481 52.646 222.481 51.8688V47.0525C222.481 46.6916 222.518 46.3539 222.592 46.0393C222.675 45.7154 222.809 45.4332 222.994 45.1926C223.179 44.952 223.42 44.7623 223.716 44.6235C224.021 44.4847 224.391 44.4153 224.826 44.4153ZM231.672 54.1589L231.298 52.1464H229.521C229.456 52.4795 229.392 52.8172 229.327 53.1596C229.271 53.4927 229.216 53.8258 229.16 54.1589H227.633C227.957 52.5396 228.281 50.9296 228.605 49.3288C228.929 47.728 229.253 46.1179 229.577 44.4986H231.242L233.199 54.1589H231.672ZM230.368 46.7332C230.275 47.3995 230.178 48.0657 230.076 48.7319C229.975 49.3889 229.863 50.0598 229.743 50.7445H231.062L230.437 46.7332H230.368ZM237.167 47.0386C237.167 46.687 237.098 46.414 236.959 46.2197C236.829 46.0161 236.575 45.9143 236.196 45.9143H235.557V52.7432H236.196C236.566 52.7432 236.82 52.646 236.959 52.4517C237.098 52.2574 237.167 51.9752 237.167 51.6051V47.0386ZM236.459 44.4986C237.033 44.4986 237.486 44.6004 237.819 44.804C238.153 44.9983 238.384 45.3314 238.513 45.8033C238.615 46.1457 238.666 46.6176 238.666 47.219C238.675 47.8112 238.68 48.5099 238.68 49.3149C238.68 50.1107 238.675 50.7954 238.666 51.3691C238.657 51.9428 238.597 52.3962 238.486 52.7293C238.31 53.2753 238.028 53.65 237.639 53.8536C237.26 54.0572 236.825 54.1589 236.334 54.1589H234.058V44.4986H236.459ZM240.09 54.1589V44.4986H244.379V45.9143H241.589V48.5376H244.018V49.9672H241.589V52.7432H244.379V54.1589H240.09ZM248.166 52.0492L247.472 50.2587L246.875 48.5654H246.806V54.1589H245.321V44.4986H246.764L247.819 47.2468L248.583 49.3426H248.652L249.429 47.1913L250.47 44.4986H251.914V54.1589H250.415V48.5931H250.359L249.749 50.3142L249.068 52.0492H248.166ZM253.347 54.1589V44.4986H254.86V54.1589H253.347ZM259.798 54.1589L259.423 52.1464H257.647C257.582 52.4795 257.517 52.8172 257.452 53.1596C257.397 53.4927 257.341 53.8258 257.286 54.1589H255.759C256.083 52.5396 256.407 50.9296 256.731 49.3288C257.054 47.728 257.378 46.1179 257.702 44.4986H259.368L261.325 54.1589H259.798ZM258.493 46.7332C258.401 47.3995 258.304 48.0657 258.202 48.7319C258.1 49.3889 257.989 50.0598 257.869 50.7445H259.187L258.563 46.7332H258.493ZM269.569 51.4107C269.569 51.8456 269.527 52.2389 269.444 52.5905C269.37 52.9329 269.24 53.229 269.055 53.4788C268.87 53.7194 268.62 53.9091 268.306 54.0479C268 54.1774 267.621 54.2422 267.168 54.2422C266.751 54.2422 266.39 54.1821 266.085 54.0618C265.789 53.9415 265.544 53.7749 265.349 53.5621C265.155 53.3493 265.012 53.0994 264.919 52.8126C264.836 52.5257 264.794 52.2204 264.794 51.8965L266.279 51.6051C266.298 51.9659 266.367 52.262 266.487 52.4934C266.608 52.7154 266.844 52.8265 267.195 52.8265C267.399 52.8265 267.561 52.7895 267.681 52.7154C267.801 52.6322 267.889 52.5257 267.945 52.3962C268.01 52.2667 268.047 52.1186 268.056 51.952C268.074 51.7855 268.084 51.6097 268.084 51.4246C268.084 51.1933 268.07 50.999 268.042 50.8417C268.014 50.6844 267.959 50.5502 267.875 50.4391C267.801 50.3281 267.69 50.231 267.542 50.1477C267.404 50.0644 267.218 49.9719 266.987 49.8701C266.524 49.6758 266.15 49.4768 265.863 49.2732C265.585 49.0697 265.372 48.8569 265.224 48.6348C265.076 48.4034 264.979 48.1629 264.933 47.913C264.887 47.6539 264.864 47.3717 264.864 47.0664C264.864 46.6777 264.91 46.3215 265.002 45.9976C265.095 45.6738 265.238 45.3962 265.433 45.1648C265.627 44.9242 265.872 44.7392 266.168 44.6096C266.474 44.4801 266.834 44.4153 267.251 44.4153C267.704 44.4153 268.079 44.4893 268.375 44.6374C268.671 44.7762 268.907 44.9566 269.083 45.1787C269.259 45.4008 269.384 45.646 269.458 45.9143C269.532 46.1827 269.569 46.4418 269.569 46.6916L268.084 47.0386C268.084 46.687 268.023 46.4001 267.903 46.178C267.783 45.956 267.547 45.8449 267.195 45.8449C267.01 45.8449 266.862 45.8819 266.751 45.956C266.649 46.03 266.566 46.1272 266.501 46.2474C266.437 46.3677 266.395 46.4973 266.376 46.6361C266.358 46.7749 266.349 46.9137 266.349 47.0525C266.349 47.219 266.358 47.3671 266.376 47.4966C266.395 47.6169 266.446 47.7326 266.529 47.8436C266.622 47.9547 266.756 48.0657 266.932 48.1767C267.107 48.2878 267.348 48.4034 267.653 48.5237C268.079 48.6903 268.417 48.8707 268.667 49.065C268.926 49.2501 269.12 49.4583 269.25 49.6896C269.379 49.9117 269.462 50.1662 269.499 50.453C269.546 50.7306 269.569 51.0499 269.569 51.4107ZM270.764 54.1589V44.4986H272.277V54.1589H270.764ZM275.189 48.5376V54.1589H273.704V44.4986H275.05L276.216 47.3717C276.309 47.6123 276.401 47.8483 276.494 48.0796C276.586 48.3109 276.684 48.5469 276.785 48.7875L277.271 50.1199C277.29 50.1199 277.299 50.1199 277.299 50.1199C277.308 50.1107 277.322 50.106 277.34 50.106V44.4986H278.812V54.1589H277.493L276.327 51.2997C276.142 50.8278 275.957 50.3651 275.772 49.9117C275.596 49.4583 275.42 49.0003 275.245 48.5376H275.189ZM280.239 54.1589V44.4986H281.752V54.1589H280.239ZM285.483 44.4153C285.881 44.4153 286.223 44.4708 286.51 44.5819C286.797 44.6929 287.033 44.8502 287.218 45.0538C287.412 45.2481 287.551 45.4841 287.634 45.7617C287.727 46.03 287.773 46.3261 287.773 46.65L286.315 47.0247C286.315 46.6731 286.246 46.3862 286.107 46.1642C285.978 45.9421 285.765 45.8311 285.469 45.8311C285.293 45.8311 285.15 45.8681 285.038 45.9421C284.927 46.0161 284.84 46.1133 284.775 46.2336C284.719 46.3446 284.678 46.4695 284.65 46.6083C284.631 46.7379 284.622 46.8628 284.622 46.9831V51.8826C284.622 51.9752 284.631 52.077 284.65 52.188C284.668 52.299 284.705 52.4055 284.761 52.5072C284.826 52.5998 284.909 52.6784 285.011 52.7432C285.122 52.808 285.261 52.8404 285.427 52.8404C285.982 52.8404 286.265 52.4425 286.274 51.6467C286.524 51.693 286.773 51.7346 287.023 51.7716C287.273 51.7994 287.523 51.8318 287.773 51.8688C287.754 52.5998 287.551 53.1781 287.162 53.6037C286.783 54.0294 286.218 54.2422 285.469 54.2422C284.673 54.2422 284.085 54.0433 283.706 53.6454C283.327 53.2382 283.137 52.646 283.137 51.8688V47.0525C283.137 46.6916 283.174 46.3539 283.248 46.0393C283.331 45.7154 283.465 45.4332 283.65 45.1926C283.836 44.952 284.076 44.7623 284.372 44.6235C284.678 44.4847 285.048 44.4153 285.483 44.4153ZM292.329 54.1589L291.954 52.1464H290.177C290.113 52.4795 290.048 52.8172 289.983 53.1596C289.928 53.4927 289.872 53.8258 289.817 54.1589H288.29C288.614 52.5396 288.938 50.9296 289.261 49.3288C289.585 47.728 289.909 46.1179 290.233 44.4986H291.899L293.856 54.1589H292.329ZM291.024 46.7332C290.932 47.3995 290.834 48.0657 290.733 48.7319C290.631 49.3889 290.52 50.0598 290.4 50.7445H291.718L291.094 46.7332H291.024Z" fill="white"/>
<path d="M9.44747 63.6253H67.1908C75.6609 53.8368 79 40.0513 74.8464 26.8368C68.4939 6.68873 46.9928 -4.56807 26.7949 1.79447C6.6784 8.157 -4.56077 29.6917 1.7918 49.9214C3.42067 55.1419 6.1083 59.7099 9.44747 63.6253Z" fill="#12568D"/>
<path d="M71.9145 27.8156C74.9279 37.3594 54.5671 52.2869 26.4691 61.1782C17.5918 33.0362 18.1619 7.74915 27.7722 4.73102C46.3413 -1.14209 66.132 9.13586 71.9145 27.8156Z" fill="#CF382A"/>
<path d="M26.4691 61.1781C17.5918 33.0361 18.1619 7.74908 27.7722 4.73096L38.3599 38.4198L26.4691 61.1781Z" fill="#AC2A24"/>
<path d="M29.564 55.2234C22.9671 34.2596 23.3743 15.4983 30.4599 13.2959L38.3599 38.4198L29.564 55.2234Z" fill="#AB4E23"/>
<path d="M32.7403 49.1871C28.4238 35.4832 28.5867 23.2476 33.1475 21.7793L38.3599 38.3382L32.7403 49.1871Z" fill="#F5AD3A"/>
<path d="M29.564 55.2236C50.4949 48.6163 65.6433 37.4411 63.4444 30.5076L38.3598 38.42L29.564 55.2236Z" fill="#D9621B"/>
<path d="M32.7402 49.1871C46.4227 44.8639 56.3588 37.6856 54.8928 33.1992L38.3598 38.4198L32.7402 49.1871Z" fill="#F7C471"/>
<path d="M71.9145 27.8156C66.132 9.13586 46.3413 -1.14209 27.7722 4.73102L38.3598 38.4198L71.9145 27.8156Z" fill="#D65C54"/>
<path d="M63.4444 30.5074C59.0464 16.6403 44.3052 8.8911 30.4598 13.2959L38.3598 38.4198L63.4444 30.5074Z" fill="#E57D3C"/>
<path d="M54.8928 33.1993C52.0423 24.0634 42.2691 18.9244 33.1475 21.8609L38.3598 38.4199L54.8928 33.1993Z" fill="#F7C471"/>
<path d="M46.3412 35.8911C46.9928 37.9304 42.2691 41.1933 35.835 43.2325C33.799 36.7069 33.799 30.9969 35.835 30.3443C40.233 28.9576 44.9567 31.4047 46.3412 35.8911Z" fill="#EFEA3C"/>
<path d="M157.837 57.4259C157.511 58.2416 156.941 58.8126 156.208 59.302C155.475 59.7915 154.498 60.0362 153.276 60.0362C151.159 60.0362 149.774 59.3836 149.041 57.9969C148.308 56.6102 147.901 54.8156 147.82 52.6132L138.698 54.4078C138.698 56.3655 138.942 58.2416 139.512 59.9546C139.92 61.3413 140.571 62.5649 141.386 63.6253H164.841C165.9 62.157 166.633 60.444 167.04 58.4863C167.529 56.3655 167.773 53.9999 167.773 51.3897C167.773 49.1872 167.61 47.2295 167.366 45.5165C167.122 43.8036 166.633 42.2537 165.819 40.867C165.004 39.4803 163.864 38.2567 162.317 37.0332C160.769 35.8912 158.733 34.8307 156.127 33.7703C154.254 33.0362 152.788 32.302 151.729 31.6495C150.67 30.9969 149.856 30.2628 149.367 29.6102C148.797 28.9576 148.471 28.2235 148.39 27.4894C148.308 26.7552 148.227 25.8579 148.227 24.7975C148.227 23.9818 148.308 23.0845 148.39 22.2688C148.471 21.4531 148.716 20.6374 149.123 19.9033C149.53 19.1691 150.019 18.5981 150.67 18.1087C151.322 17.6193 152.218 17.4561 153.276 17.4561C155.394 17.4561 156.778 18.1087 157.511 19.4954C158.244 20.8821 158.57 22.5951 158.57 24.7159L167.692 22.5951C167.692 21.0452 167.448 19.4954 167.04 17.864C166.552 16.2326 165.819 14.7643 164.76 13.3776C163.701 11.9909 162.235 10.9304 160.443 10.0332C158.652 9.13588 156.371 8.72803 153.602 8.72803C151.077 8.72803 148.878 9.13588 147.087 9.95159C145.295 10.7673 143.747 11.8277 142.607 13.296C141.386 14.7643 140.571 16.3957 140.001 18.435C139.431 20.3927 139.187 22.5951 139.187 24.9607C139.187 26.8368 139.35 28.5498 139.594 30.0996C139.838 31.6495 140.49 33.1178 141.386 34.5045C142.282 35.8912 143.585 37.1963 145.295 38.4199C147.005 39.6434 149.286 40.867 152.055 42.0906C153.439 42.7431 154.579 43.3141 155.475 43.8036C156.371 44.293 157.023 44.864 157.511 45.5981C158 46.2507 158.326 47.0664 158.489 48.0452C158.652 49.0241 158.733 50.1661 158.733 51.5528C158.733 52.6948 158.652 53.7552 158.57 54.7341C158.407 55.7129 158.163 56.6102 157.837 57.4259Z" fill="white"/>
<path d="M132.427 63.6254V59.5468H115.487V42.58H130.228V33.8519H115.487V17.864H132.427V9.29907H106.446V63.6254H132.427Z" fill="white"/>
<path d="M95.7774 9.29907H86.6558V63.5438H95.7774V9.29907Z" fill="white"/>
<path d="M10.0991 70.8035C10.262 70.8035 10.4249 70.8035 10.6692 70.8851C10.995 71.0482 11.3207 71.1298 11.4836 71.1298C12.298 70.9666 13.1125 70.8851 13.9269 70.8035C13.9269 69.9878 13.9269 69.2537 14.0084 68.4379C14.0084 68.3564 14.0084 68.2748 13.9269 68.2748C13.8455 68.2748 13.8455 68.1932 13.8455 68.1117C13.9269 68.1117 14.0084 68.1117 14.0084 68.0301C14.0084 67.9485 13.9269 67.9485 13.8455 67.9485C13.764 67.9485 13.764 67.8669 13.764 67.7854C13.8455 67.7038 14.0084 67.6222 14.1712 67.3775C14.3341 67.2144 14.497 67.1328 14.7413 67.1328C14.9042 67.1328 15.1486 67.2144 15.3929 67.3775C15.6372 67.5407 15.8001 67.7038 15.8001 67.8669C15.8001 68.0301 15.8001 68.1117 15.7187 68.2748C15.6372 68.4379 15.5558 68.6011 15.5558 68.6827C15.5558 69.3352 15.5558 69.9878 15.5558 70.6404C16.3702 70.5588 17.1846 70.4772 17.9991 70.4772C18.2434 70.3956 18.4063 70.3141 18.6506 70.2325C18.8135 70.1509 19.0578 70.1509 19.2207 70.1509C19.4651 70.2325 19.7094 70.3141 19.8723 70.5588C20.1166 70.8851 20.2795 71.1298 20.2795 71.3745C20.2795 71.7824 20.1166 72.1902 19.7908 72.4349C19.6279 72.6796 19.5465 73.0059 19.3836 73.3322C19.1393 73.9032 19.0578 74.3111 19.0578 74.5558C19.2207 74.7189 19.3022 74.8005 19.3022 74.9636C19.1393 75.2899 18.895 75.5346 18.5692 75.5346H16.9403C16.4517 75.5346 15.963 75.5346 15.5558 75.6162C15.5558 76.7582 15.5558 77.8186 15.5558 78.9606C15.5558 80.1842 15.23 80.7552 14.7413 80.7552C14.2527 80.5104 14.0084 79.9394 14.0084 79.0422C14.0084 77.9002 14.0084 76.7582 14.0084 75.6978C13.1939 75.7793 12.6238 75.7793 12.1352 75.8609C11.9723 76.1056 11.7279 76.1872 11.4836 76.1872C11.2393 76.1872 11.0764 76.1056 11.0764 76.024C10.995 76.024 10.8321 75.6978 10.6692 75.0452C10.6692 74.4742 10.5877 73.9848 10.5063 73.4953C10.3434 72.7612 10.1805 72.3533 10.0176 72.3533C9.93619 72.3533 9.85475 72.3534 9.77331 72.4349C9.69186 72.4349 9.69186 72.4349 9.61042 72.3533C9.61042 72.2718 9.69186 72.1902 9.69186 72.1902H9.44753C9.36609 72.1902 9.36609 72.1086 9.36609 72.0271C9.44753 71.9455 9.52898 71.6192 9.69186 71.2114C9.69186 70.9666 9.93619 70.8035 10.0991 70.8035ZM13.9269 74.4742C13.9269 73.6585 13.9269 72.8428 14.0084 72.0271C13.2754 72.1086 12.5424 72.1902 11.7279 72.3533C11.6465 72.3533 11.6465 72.4349 11.5651 72.5981C11.6465 73.2506 11.7279 73.9032 11.8908 74.6373C11.8908 74.7189 11.9723 74.7189 12.0537 74.7189C12.6238 74.5558 13.2754 74.4742 13.9269 74.4742ZM17.5919 71.6192C16.9403 71.6192 16.4517 71.6192 16.0444 71.7008C15.8816 71.7824 15.6372 71.7824 15.4743 71.7824C15.4743 72.5981 15.4743 73.4138 15.4743 74.3111C16.0444 74.2295 16.5331 74.2295 17.1032 74.1479C17.1846 74.1479 17.2661 74.1479 17.3475 74.2295C17.429 74.2295 17.429 74.2295 17.5104 74.1479C17.6733 73.5769 17.8362 72.9243 17.9991 72.1086C17.9176 71.7824 17.8362 71.6192 17.5919 71.6192Z" fill="white"/>
<path d="M30.6228 70.3141C30.8671 70.3141 31.1929 70.3957 31.4372 70.4772C31.6001 70.5588 31.763 70.5588 31.8444 70.6404C32.496 70.5588 33.1475 70.5588 33.7991 70.4772C33.7991 69.9878 33.7991 69.4168 33.8805 68.9274C33.8805 68.7642 33.7991 68.6827 33.7176 68.6827C33.6362 68.6827 33.6362 68.6011 33.6362 68.5195C33.7176 68.5195 33.7991 68.5195 33.7991 68.4379C33.7991 68.3564 33.7176 68.3564 33.6362 68.3564C33.5547 68.3564 33.5547 68.2748 33.5547 68.1932C33.7176 68.1117 33.7991 67.9485 33.8805 67.7854C33.962 67.6222 34.0434 67.4591 34.2063 67.3775C34.4506 67.2144 34.695 67.1328 35.0207 67.1328C35.1836 67.2144 35.3465 67.2959 35.5094 67.4591C35.6723 67.6222 35.8352 67.7854 35.8352 68.0301C35.8352 68.3564 35.7537 68.6011 35.6723 68.8458C35.6723 69.3352 35.5908 69.8247 35.5908 70.3141C36.0795 70.2325 36.6496 70.2325 37.1382 70.1509C37.3011 70.0694 37.464 69.9878 37.7084 69.8247C37.9527 69.7431 38.197 69.7431 38.3599 69.7431C39.0929 69.9062 39.4187 70.3141 39.4187 71.0482C39.4187 71.2929 39.2558 71.4561 39.0929 71.6192C39.0114 71.7824 38.8486 72.1086 38.7671 72.4349C38.6857 72.8428 38.5228 73.4138 38.2785 74.0663C38.6857 74.0663 39.0929 74.0663 39.5001 73.9848C40.1517 74.0663 40.4774 74.3926 40.4774 74.9636C40.4774 75.2083 40.2331 75.3715 39.8259 75.3715C38.4413 75.3715 37.2197 75.3715 36.0795 75.4531C36.6496 76.024 37.2197 76.595 37.6269 77.0029C38.6042 77.9818 39.663 78.7159 40.8032 79.2053C40.8846 79.2053 40.8846 79.2869 40.8846 79.3685C40.8846 79.45 40.7218 79.5316 40.3145 79.5316C40.0702 79.5316 39.8259 79.6947 39.5815 79.9395C39.4187 80.2657 39.1743 80.4289 38.8486 80.4289C38.3599 80.4289 37.6269 79.6947 36.6496 78.2265C35.998 77.3292 35.5908 76.6766 35.1836 76.2688C35.0207 76.024 34.8578 75.8609 34.6949 75.7793C34.6135 75.9425 34.6135 76.1056 34.5321 76.2688C34.1248 77.166 33.4733 77.9818 32.7403 78.7159C31.9259 79.5316 31.3558 79.9395 30.9486 79.9395C30.7857 79.9395 30.7042 79.9395 30.6228 79.8579C30.5413 79.7763 30.4599 79.7763 30.3785 79.7763C30.297 79.7763 30.2156 79.8579 30.0527 79.9395C29.8898 80.1026 29.7269 80.2657 29.6455 80.2657C29.4826 80.2657 29.4011 80.1842 29.4011 80.1026C29.4011 80.021 29.7269 79.6947 30.297 79.2053C30.6228 78.879 31.03 78.5527 31.3558 78.2265C31.9259 77.5739 32.4145 76.9213 32.8218 76.2688C32.9032 76.1056 33.0661 75.8609 33.1475 75.6978C32.3331 75.6978 31.6815 75.7793 31.03 75.8609C30.4599 76.024 29.9712 76.1056 29.7269 76.1056C29.2382 76.1056 28.9939 75.8609 28.9125 75.3715C28.9125 75.1268 28.9939 74.9636 29.1568 74.7189C29.564 74.4742 29.8084 74.3111 29.8898 74.3111C29.9712 74.3111 29.9712 74.3111 29.9712 74.3926C29.9712 74.4742 29.9712 74.4742 30.0527 74.5558C30.1341 74.5558 30.1341 74.4742 30.1341 74.4742C30.2156 74.4742 30.2156 74.4742 30.2156 74.5558C30.2156 74.6373 30.2156 74.6373 30.297 74.6373C30.6228 74.6373 30.8671 74.6373 31.1114 74.5558C30.8671 73.4138 30.7857 72.5165 30.7042 71.7824C30.6228 71.7008 30.5413 71.7008 30.4599 71.7008C30.3785 71.7008 30.3785 71.7008 30.3785 71.6192V71.5376H30.2156C30.1341 71.5376 30.1341 71.4561 30.1341 71.3745C30.2156 71.3745 30.3785 71.1298 30.4599 70.8035C30.2156 70.4772 30.3785 70.3141 30.6228 70.3141ZM32.0888 74.4742C32.496 74.4742 32.9032 74.4742 33.3104 74.3926C33.4733 73.7401 33.6362 73.0059 33.6362 72.2718C33.6362 72.0271 33.6362 71.8639 33.6362 71.6192C33.3104 71.6192 32.9032 71.7008 32.5774 71.7008C32.2517 71.7824 32.0073 71.7824 31.763 71.8639C31.8444 72.7612 32.0073 73.6585 32.0888 74.4742ZM34.8578 74.3111C35.4279 74.3111 35.998 74.2295 36.4867 74.2295C36.731 73.4953 36.8939 72.6796 36.8939 71.7824C36.8939 71.5376 36.8125 71.4561 36.5681 71.3745C36.1609 71.3745 35.5908 71.3745 35.0207 71.4561C35.1022 72.5165 35.0207 73.4953 34.8578 74.3111Z" fill="white"/>
<path d="M49.1918 70.885C49.1104 70.885 49.1104 70.885 49.0289 70.885C48.7846 71.0482 48.5403 71.1297 48.2959 71.1297C48.0516 71.1297 47.8887 71.0482 47.8073 70.885C47.7258 70.7219 47.6444 70.5588 47.6444 70.4772C47.6444 70.314 47.6444 70.2325 47.7258 70.0693C47.9702 69.8246 48.0516 69.5799 48.0516 69.4983C48.133 69.4983 48.133 69.4983 48.133 69.5799C48.133 69.6615 48.133 69.6615 48.2145 69.6615L48.2959 69.5799C48.3774 69.5799 48.3774 69.5799 48.3774 69.6615C48.3774 69.743 48.3774 69.8246 48.4588 69.8246C49.599 69.6615 50.9021 69.4983 52.2867 69.2536C52.6939 69.2536 52.8568 69.4168 52.9382 69.743C52.9382 70.0693 52.7753 70.314 52.4495 70.3956C52.2052 70.4772 51.798 70.5588 51.3093 70.6403C50.9836 70.7219 50.6578 70.7219 50.332 70.8035C50.4135 70.8035 50.4135 70.885 50.4135 70.885C50.5764 71.0482 50.6578 71.2113 50.6578 71.3745C50.5763 71.7007 50.4135 71.9455 50.1691 72.1902C50.0062 72.598 49.8434 73.0875 49.599 73.5769C49.8434 73.5769 50.1691 73.4953 50.4135 73.4137C50.5764 73.3322 50.8207 73.3322 51.065 73.2506C51.3093 73.0875 51.4722 73.0875 51.5537 73.0875C51.8794 73.0875 52.1238 73.169 52.3681 73.3322C52.531 73.4953 52.6124 73.6585 52.6939 73.8216C52.6939 73.8216 52.6939 73.8216 52.6939 73.74C52.9382 73.6585 53.1825 73.4953 53.5083 73.2506C53.5897 73.2506 53.5898 73.2506 53.5898 73.3322C53.5898 73.4137 53.5898 73.4953 53.6712 73.4953C53.7526 73.4953 53.8341 73.4137 53.8341 73.3322C53.9155 73.3322 53.9155 73.3322 53.9155 73.4137C53.9155 73.4953 53.9155 73.4953 53.997 73.5769C54.0784 73.5769 54.2413 73.5769 54.4042 73.5769C54.4042 73.0059 54.3227 72.4349 54.3227 71.8639C54.3227 71.7823 54.2413 71.7007 54.1599 71.6192C54.0784 71.6192 53.997 71.5376 53.997 71.5376C54.0784 71.456 54.1599 71.3745 54.1599 71.2929C53.997 71.2929 53.9155 71.2929 53.9155 71.2113C53.997 71.0482 54.1599 70.885 54.4042 70.6403C54.0784 70.7219 53.8341 70.7219 53.5898 70.7219C53.3454 70.7219 53.1825 70.6403 53.1011 70.5588C53.0196 70.314 52.9382 70.1509 52.9382 70.0693C52.9382 69.9878 53.0196 69.8246 53.1011 69.6615C53.264 69.4168 53.4269 69.2536 53.4269 69.0905C53.5083 69.0905 53.5083 69.0905 53.5083 69.172C53.5083 69.2536 53.5083 69.2536 53.5898 69.2536L53.6712 69.172C53.7526 69.172 53.7526 69.172 53.7526 69.2536C53.7526 69.3352 53.7526 69.4168 53.8341 69.4168C55.5444 69.172 57.499 68.9273 59.698 68.6826C60.1052 68.6826 60.3495 68.8458 60.431 69.2536C60.431 69.6615 60.2681 69.9062 59.8609 69.9878C59.5351 70.0693 59.1279 70.0693 58.7207 70.1509C58.965 70.2325 59.0465 70.3956 59.1279 70.4772C59.1279 70.7219 59.1279 70.9666 59.0465 71.1297C59.0465 71.6192 59.0465 72.1086 59.0465 72.6796C59.0465 72.8427 59.0465 73.0059 59.0465 73.2506C59.4537 73.2506 59.8609 73.2506 60.1867 73.2506C60.5939 73.2506 60.9197 73.4953 61.0825 74.0663C61.0825 74.4742 60.7568 74.6373 60.1867 74.6373C59.7794 74.6373 59.3722 74.6373 58.965 74.6373C58.965 74.7189 58.965 74.8004 58.965 74.882C58.965 76.3503 58.965 77.8186 58.965 79.2053C58.8021 80.3473 58.5578 80.9998 58.232 81.0814C57.8248 81.0814 57.5805 80.592 57.4176 79.6131V74.5557C56.8475 74.6373 56.2774 74.6373 55.7887 74.7189C55.7073 76.024 55.4629 77.2476 55.1372 78.3896C54.9743 78.7974 54.73 79.1237 54.5671 79.45C54.3227 79.8578 54.0784 80.021 53.8341 80.021C53.6712 80.021 53.5083 80.1026 53.3454 80.1841C53.1825 80.592 53.0196 80.7551 53.0196 80.7551C52.8568 80.7551 52.8568 80.6736 52.8568 80.5104C53.1011 79.6947 53.5083 78.6343 53.997 77.4107C54.2413 76.7582 54.4042 75.9424 54.4856 74.9636C54.2413 75.0452 54.0784 75.0452 53.9155 75.1267C53.6712 75.2899 53.5083 75.3714 53.4269 75.3714C52.8568 75.2899 52.531 75.0452 52.4495 74.5557C52.4495 74.4742 52.4495 74.3926 52.4495 74.311C52.3681 74.3926 52.3681 74.4742 52.3681 74.4742C52.2867 75.1267 52.2052 75.6977 52.1238 76.1056C52.2052 76.1872 52.2867 76.3503 52.3681 76.5134C52.3681 76.8397 52.2052 77.0029 51.8794 77.0844C51.7166 77.0844 51.5537 77.166 51.3093 77.2476C51.065 77.2476 50.8207 77.3291 50.4949 77.3291C50.4135 77.3291 50.2506 77.4107 50.1691 77.4107L50.0877 77.4923C50.0062 77.737 49.8434 77.9001 49.599 77.9817C49.2733 77.9817 49.0289 77.737 48.9475 77.3291C48.866 76.7582 48.866 76.2687 48.866 75.8609C48.7846 76.1056 48.6217 76.1872 48.5403 76.2687C48.5403 76.3503 48.3774 76.4319 48.2145 76.4319C48.0516 76.4319 47.9702 76.5134 47.8887 76.595C47.8073 76.6766 47.7258 76.8397 47.5629 77.0844C47.2372 77.3291 47.1557 77.4923 47.0743 77.4923C46.9114 77.4923 46.83 77.4107 46.83 77.3291C46.9114 76.8397 47.2372 75.9424 47.7258 74.5557C47.8887 74.1479 48.2145 73.5769 48.4588 72.8427C48.7032 72.3533 48.9475 71.8639 49.0289 71.2929C49.0289 71.2929 49.0289 71.2113 48.9475 71.2113C48.9475 71.2113 48.9475 71.2113 48.9475 71.1297C48.9475 71.1297 49.0289 71.1297 49.0289 71.0482C49.0289 71.0482 49.0289 70.9666 48.9475 70.9666V70.885C48.9475 70.9666 49.0289 70.9666 49.1918 70.885ZM49.9248 76.1872C50.1691 76.1872 50.4949 76.1056 50.7392 76.1056C50.8207 75.8609 50.9021 75.453 50.9836 74.8004C50.9836 74.5557 50.8207 74.4742 50.4949 74.4742C50.2506 74.4742 50.0062 74.5557 49.8434 74.6373C49.8434 75.1267 49.9248 75.6977 49.9248 76.1872ZM55.9516 73.4137C56.5217 73.3322 57.0104 73.2506 57.499 73.2506V71.6192C57.499 71.3745 57.4176 71.2929 57.3361 71.2929C57.2547 71.2929 57.2547 71.2929 57.2547 71.2113C57.3361 71.2113 57.3361 71.1297 57.3361 71.1297H57.1733C57.0918 70.9666 57.0104 70.9666 57.0104 70.885C57.0918 70.885 57.1733 70.8035 57.3361 70.6403C57.4176 70.4772 57.499 70.314 57.499 70.2325C56.9289 70.314 56.4403 70.314 55.8702 70.3956C55.7887 70.3956 55.6258 70.3956 55.5444 70.4772C55.6258 70.4772 55.6258 70.5588 55.7073 70.5588C56.0331 70.8035 56.1959 71.0482 56.1959 71.2113C56.1959 71.3745 56.1145 71.456 56.0331 71.5376C55.9516 71.7007 55.9516 71.8639 55.9516 71.9455C55.9516 72.4349 55.9516 73.0059 55.9516 73.4137Z" fill="white"/>
<path d="M72.8918 67.5408C73.1362 67.6223 73.4619 67.7855 73.7877 68.0302C74.032 68.3565 74.1949 68.6012 74.1949 68.8459C74.1949 69.0906 74.1135 69.2538 74.032 69.3353C75.1723 69.2538 76.3939 69.1722 77.5341 69.009C77.7784 68.8459 78.0228 68.6828 78.1857 68.6828C78.5929 68.7643 78.8372 68.9275 79.0815 69.1722C79.4073 69.4985 79.5702 69.8248 79.5702 70.151C79.5702 70.6405 79.163 70.8852 78.43 70.8852C78.2671 70.9668 78.1042 71.1299 77.9413 71.293C77.7784 71.4562 77.6156 71.5377 77.5341 71.5377C77.4527 71.5377 77.4527 71.5377 77.3712 71.5377C77.2898 71.5377 77.2083 71.5377 77.2083 71.5377C77.2083 71.5377 77.0454 71.6193 76.964 71.7009C76.8826 71.7825 76.8011 71.864 76.7197 71.864C76.5568 71.864 76.4753 71.7825 76.4753 71.6193C76.4753 71.5378 76.6382 71.293 76.8826 70.9668C77.0455 70.722 77.1269 70.5589 77.2083 70.3958C77.2083 70.2326 77.1269 70.151 76.964 70.151C76.5568 70.151 76.1496 70.2326 75.7424 70.2326C75.9052 70.3142 75.9867 70.4773 76.0681 70.6405C76.0681 70.722 75.9867 70.8036 75.8238 70.8852C75.7424 70.9668 75.6609 71.1299 75.6609 71.2115C75.5795 71.4562 75.5795 71.7825 75.5795 72.1903C75.6609 72.435 75.8238 72.5982 76.1496 72.5982C76.6382 72.5982 77.0455 72.5166 77.2898 72.5166C77.5341 72.5982 77.697 72.7613 77.7784 73.0876C77.7784 73.6586 77.1269 73.9033 75.8238 73.9033C74.765 73.8217 74.1949 73.4139 74.1949 72.5982C74.2764 71.864 74.2764 71.3746 74.2764 71.2115C74.2764 71.0483 74.1949 70.9668 74.1135 70.9668L74.032 70.8852C74.1135 70.8852 74.1949 70.8036 74.1949 70.722L74.1135 70.6405C74.032 70.6405 74.032 70.5589 74.032 70.5589C74.1135 70.5589 74.2764 70.4773 74.4393 70.3958C72.5661 70.5589 70.9372 70.8036 69.5527 71.0483C69.4712 71.3746 69.3898 71.6193 69.3083 71.864C69.1454 72.3535 68.7382 72.5982 68.2496 72.5982C67.8424 72.5166 67.598 72.2719 67.598 71.7825C67.7609 71.3746 67.9238 71.1299 68.1681 70.9668C68.4939 70.722 68.7382 70.3958 68.9826 69.9063C69.1454 69.4169 69.3083 69.1722 69.4712 69.1722C69.5527 69.1722 69.6341 69.2538 69.6341 69.3353C69.6341 69.4985 69.6341 69.58 69.7155 69.58C69.7155 69.58 69.7155 69.6616 69.797 69.6616L69.8784 69.7432V69.8248C71.0186 69.7432 72.1589 69.58 73.2176 69.4985C73.1362 69.4169 72.9733 69.1722 72.8918 68.9275C72.6475 68.6828 72.4032 68.438 72.1588 68.2749C71.9145 68.1118 71.7516 67.9486 71.7516 67.9486C71.7516 67.7855 71.8331 67.7039 71.9145 67.7039C71.996 67.7039 72.0774 67.7039 72.2403 67.7855C72.4032 67.7855 72.4846 67.7855 72.5661 67.7855C72.6475 67.7855 72.6475 67.7039 72.729 67.7039C72.729 67.6223 72.8104 67.5408 72.8918 67.5408ZM75.3351 74.2296C75.9867 74.3112 76.3939 74.6375 76.6382 75.29C76.6382 75.3716 76.5568 75.4532 76.4753 75.5347C76.231 75.6979 76.1496 75.861 76.0681 76.0242C75.9052 76.5136 75.8238 77.0846 75.8238 77.7372C75.8238 78.6344 76.231 79.0423 77.1269 79.0423C77.7784 79.0423 78.1042 78.3897 78.1042 77.003C78.1042 76.7583 78.1042 76.6767 78.1857 76.6767C78.1857 76.6767 78.2671 76.6767 78.2671 76.7583C78.3485 76.7583 78.43 77.003 78.43 77.4109C78.43 77.4924 78.5114 77.574 78.6743 77.6556C78.7558 77.7371 78.7558 77.8187 78.8372 77.9819C78.8372 78.0634 78.9186 78.2266 78.9186 78.3081C79.0001 78.3897 79.0815 78.4713 79.2444 78.5529C79.4073 78.716 79.4887 78.8791 79.4887 79.0423C79.4073 79.9396 78.5929 80.3474 76.964 80.3474C75.3351 80.3474 74.4393 79.5317 74.4393 77.8187C74.4393 77.003 74.5207 76.3504 74.6836 75.861C74.6836 75.6979 74.6022 75.6979 74.4393 75.6979C73.9506 75.6979 73.5434 75.7794 73.0547 75.861C73.0547 76.1057 72.9733 76.2689 72.9733 76.5136C72.8918 77.003 72.6475 77.4924 72.4032 77.9003C72.1589 78.3081 71.9145 78.716 71.4259 79.1239C70.8558 79.6133 70.4485 79.858 70.2042 79.9396H69.8784C69.797 79.9396 69.6341 79.9396 69.5527 79.9396C69.4712 79.9396 69.3083 80.0211 69.1454 80.2659C68.9826 80.5106 68.8197 80.5921 68.5753 80.5921C68.4939 80.5921 68.4125 80.5106 68.4125 80.3474C68.4125 80.1843 68.7382 79.858 69.3083 79.3686C69.6341 79.0423 69.9599 78.716 70.2857 78.3897C70.6929 77.9003 71.0186 77.3293 71.1815 76.6767C71.263 76.5136 71.3444 76.3504 71.3444 76.1873C71.0186 76.2689 70.6929 76.3504 70.4485 76.3504C69.8784 76.5952 69.4712 76.6767 69.1454 76.6767C68.9826 76.6767 68.8197 76.5952 68.7382 76.3504C68.5753 76.1057 68.4939 75.9426 68.4939 75.7794C68.4939 75.6979 68.5753 75.5347 68.8197 75.29C68.9826 75.0453 69.2269 74.8006 69.4712 74.6375C69.5527 74.6375 69.5527 74.6374 69.5527 74.719C69.5527 74.8006 69.6341 74.8822 69.6341 74.8822C69.7155 74.8822 69.7155 74.8006 69.7155 74.719C69.797 74.719 69.797 74.719 69.797 74.8006C69.797 74.8822 69.797 74.9637 69.8784 74.9637C69.8784 74.9637 69.9599 74.9637 70.1228 74.9637C70.53 74.9637 71.0186 74.8822 71.5073 74.8006C71.5073 74.5559 71.5073 74.3927 71.4259 74.3112C71.3444 74.3112 71.263 74.2296 71.263 74.2296C71.1815 74.2296 71.1815 74.148 71.1815 74.0665C71.263 74.0665 71.263 74.0665 71.263 73.9849C71.263 73.9849 71.263 73.9033 71.1815 73.9033C71.1001 73.9033 71.1001 73.8217 71.1001 73.7402C71.263 73.7402 71.5073 73.4955 71.8331 73.0876C71.996 72.9245 72.2403 72.8429 72.4846 72.8429C72.6475 72.8429 72.8104 72.9245 72.9733 73.0876C73.2176 73.3323 73.3805 73.577 73.3805 73.7402C73.3805 73.9033 73.3805 74.0665 73.2991 74.2296C73.2176 74.3112 73.2176 74.4743 73.1362 74.5559C73.6248 74.4743 74.032 74.4743 74.2764 74.3927C74.765 74.3927 75.0908 74.3112 75.3351 74.2296ZM71.996 70.9668C72.4032 71.0483 72.6475 71.4562 72.6475 72.1903C72.6475 72.435 72.4846 72.5166 72.0774 72.5982C71.9145 72.7613 71.5887 73.006 71.1815 73.3323C70.6114 73.7402 70.2042 73.9849 70.0413 73.9849C69.8784 73.9849 69.7155 73.9849 69.6341 73.9849C69.4712 73.9849 69.3083 74.0665 69.1454 74.148C69.064 74.2296 68.9826 74.3112 68.9011 74.3112C68.7382 74.3112 68.7382 74.2296 68.7382 74.148C68.9011 73.8217 69.2269 73.577 69.5527 73.2507C70.1228 72.8429 70.6114 72.435 70.9372 72.1087C71.0186 72.0272 71.1001 71.864 71.1001 71.7825C71.1001 71.6193 71.1001 71.5377 71.0186 71.5377C70.9372 71.4562 70.9372 71.3746 70.9372 71.293L71.1001 71.2115L70.8558 71.0483C71.3444 70.9668 71.7516 70.9668 71.996 70.9668Z" fill="white"/>
<path d="M88.7733 74.8004C88.7733 76.3503 88.6918 77.9001 88.6918 79.5316C88.6104 80.1026 88.366 80.4288 88.0403 80.4288C87.5516 80.2657 87.2258 79.9394 87.2258 79.3684C87.4702 76.8397 87.5516 73.6585 87.633 69.9878C87.633 69.9062 87.633 69.8246 87.5516 69.8246C87.4702 69.8246 87.4702 69.743 87.4702 69.6615C87.5516 69.6615 87.633 69.5799 87.633 69.5799C87.633 69.5799 87.5516 69.4983 87.4702 69.4983C87.4702 69.4983 87.3887 69.4983 87.3887 69.4168C87.4702 69.3352 87.5516 69.2536 87.7959 69.0905C87.9588 68.9273 88.0403 68.8458 88.2032 68.8458C88.366 68.8458 88.5289 68.9273 88.6104 69.0089C88.6918 69.0905 88.7733 69.1721 88.8547 69.1721H88.9361C89.4248 69.0905 89.832 69.0905 90.0763 69.0905C90.2392 69.0905 90.4021 69.0089 90.6465 68.8458C90.7279 68.7642 90.8908 68.6826 91.0537 68.6826C91.2166 68.6826 91.4609 68.7642 91.6238 68.9273C91.8681 69.0905 91.9495 69.3352 91.9495 69.6615C91.9495 69.9878 91.7867 70.314 91.3794 70.5588C91.1351 70.885 90.8908 71.2113 90.6465 71.5376C90.4836 71.8639 90.4021 72.027 90.4021 72.1086C90.4021 72.1902 90.4836 72.3533 90.7279 72.5165C90.8908 72.6796 91.0537 72.8427 91.2166 73.0875C91.3794 73.4137 91.5423 73.8216 91.5423 74.2294C91.5423 74.7189 91.4609 75.1267 91.2166 75.453C90.9722 75.7793 90.7279 75.9424 90.3207 76.024C90.1578 76.024 89.9949 75.9424 89.832 75.8609C89.7506 75.7793 89.5877 75.6162 89.5062 75.3714C89.5062 75.2899 89.3434 75.2083 89.0176 75.0452C88.7733 74.8004 88.7733 74.8004 88.7733 74.8004ZM88.9361 70.0693C88.8547 70.3956 88.8547 70.9666 88.7733 71.9455C88.7733 72.6796 88.6918 73.4953 88.6918 74.2294C88.8547 74.311 89.0176 74.311 89.099 74.3926C89.3434 74.4742 89.5877 74.5557 89.7506 74.5557C89.9949 74.4742 90.0763 74.1479 90.0763 73.4953C89.9949 73.0059 89.832 72.6796 89.5062 72.3533C89.2619 72.1902 89.099 72.1086 89.099 72.027C89.099 71.9455 89.099 71.8639 89.1805 71.7007C89.3434 71.5376 89.5062 71.456 89.5877 71.2929C89.9135 70.6403 90.0763 70.1509 90.0763 70.0693C90.0763 69.9878 89.9949 69.9062 89.7506 69.9062C89.6691 69.9062 89.3434 69.9062 88.9361 70.0693ZM93.2526 75.6977C93.1712 75.6977 93.0897 75.6977 93.0897 75.7793C92.764 75.9424 92.4382 76.024 92.2753 76.024C91.8681 76.024 91.5423 75.7793 91.4609 75.2899C91.4609 75.0452 91.5423 74.882 91.7052 74.6373C92.1124 74.3926 92.3568 74.2294 92.4382 74.2294C92.5196 74.2294 92.5196 74.2294 92.5196 74.311C92.5196 74.3926 92.5196 74.3926 92.6011 74.4742L92.6825 74.3926C92.764 74.3926 92.764 74.3926 92.764 74.4742C92.764 74.5557 92.764 74.5557 92.8454 74.6373C94.9629 74.3926 96.6732 74.2294 97.8949 74.1479C98.5464 74.2294 98.8722 74.5557 98.8722 75.0452C98.8722 75.2899 98.6279 75.453 98.2207 75.5346C97.732 75.5346 97.2434 75.5346 96.7547 75.5346C96.7547 75.5346 96.7547 75.5346 96.8361 75.5346C96.999 75.6162 97.0805 75.7793 97.0805 75.9424C97.0805 76.024 97.0805 76.1056 96.999 76.2687C96.9176 76.4319 96.8361 76.5134 96.7547 76.6766C96.6733 77.0844 96.6732 77.6554 96.6732 78.308C96.6732 78.879 96.8361 79.2053 97.2434 79.2053H97.8135C98.3021 79.2053 98.5464 78.7974 98.5464 77.9001C98.5464 77.737 98.5464 77.5739 98.5464 77.4107C98.5464 77.3291 98.5464 77.3291 98.6279 77.3291C98.7908 77.3291 98.8722 77.4923 98.9537 77.9001C98.9537 78.0633 99.0351 78.1449 99.1165 78.2264C99.2794 78.308 99.3609 78.5527 99.3609 78.9606C99.5238 79.2053 99.6052 79.45 99.6052 79.7763C99.6052 80.2657 99.198 80.5104 98.3021 80.5104C98.1392 80.5104 97.732 80.5104 97.0805 80.5104C96.4289 80.5104 95.9403 80.3473 95.6959 80.021C95.4516 79.7763 95.2887 79.2868 95.2073 78.6343C95.2073 78.0633 95.2887 77.4107 95.2887 76.8397C95.2887 76.7581 95.2073 76.6766 95.1258 76.595C95.0444 76.595 95.0444 76.5134 95.0444 76.4319C95.1258 76.4319 95.2073 76.3503 95.2073 76.2687C95.1258 76.2687 95.0444 76.2687 94.9629 76.2687C94.8815 76.2687 94.8815 76.1872 94.8815 76.1056C94.9629 76.1056 95.0444 75.9424 95.2073 75.7793C95.2887 75.6977 95.2887 75.6162 95.3702 75.5346C95.1258 75.5346 94.9629 75.5346 94.7186 75.6161C94.6372 75.6161 94.5557 75.6161 94.3928 75.6161C94.3928 75.6977 94.4743 75.6977 94.4743 75.7793C94.6372 75.8609 94.7186 76.024 94.7186 76.2687C94.7186 76.4319 94.6372 76.6766 94.3928 76.9213C94.23 77.0844 94.1485 77.2476 94.0671 77.5739C93.9042 77.9817 93.7413 78.308 93.5784 78.5527C93.2526 79.0421 92.9269 79.3684 92.6011 79.6131C92.2753 79.8578 92.031 80.021 91.8681 80.021C91.7867 80.021 91.6238 80.021 91.5423 80.1026C91.4609 80.1026 91.3794 80.1841 91.298 80.2657C91.2165 80.4288 91.1351 80.5104 91.0537 80.5104C90.9722 80.5104 90.8908 80.5104 90.8908 80.4288C90.8908 80.3473 90.9722 80.1841 91.0537 79.9394C91.2166 79.6947 91.4609 79.45 91.7867 79.1237C92.1124 78.879 92.3568 78.4711 92.6011 77.9817C92.8454 77.3291 93.0083 76.9213 93.0083 76.7581C93.0083 76.6766 92.9269 76.6766 92.9269 76.6766C92.8454 76.6766 92.764 76.6766 92.764 76.595C92.8454 76.595 92.9269 76.5134 92.9269 76.5134C92.9269 76.4319 92.8454 76.4319 92.764 76.4319C92.6825 76.4319 92.6825 76.3503 92.6825 76.2687C92.9269 76.024 93.0897 75.8609 93.2526 75.6977ZM97.732 69.4983C97.8949 69.3352 98.1392 69.2536 98.3021 69.2536C98.6279 69.3352 98.8722 69.4168 99.0351 69.6615C99.2794 69.9062 99.4423 70.2325 99.4423 70.4772C99.4423 70.9666 99.1165 71.2929 98.465 71.2929C98.3836 71.3745 98.2207 71.5376 97.9763 71.7007C97.8135 71.8639 97.732 71.9455 97.6506 71.9455C97.5691 71.9455 97.5691 71.9455 97.4877 71.9455C97.4062 71.9455 97.4062 71.9455 97.3248 71.9455C97.3248 71.9455 97.2434 72.027 97.0805 72.1086C97.3248 72.1902 97.4062 72.3533 97.4877 72.5165C97.4877 72.8427 97.3248 73.0875 96.999 73.169C96.7547 73.169 96.3475 73.2506 95.9403 73.3322C95.533 73.3322 95.0444 73.4137 94.5557 73.4137C94.3928 73.4137 94.1485 73.4137 93.9042 73.4953C93.6599 73.5769 93.4155 73.6585 93.2526 73.6585C93.0897 73.6585 92.8454 73.5769 92.764 73.4953C92.6825 73.3322 92.6011 73.169 92.6011 73.0875C92.6011 73.0059 92.6011 72.8427 92.6825 72.6796C92.8454 72.4349 93.0083 72.2717 93.0083 72.1902C93.0897 72.1902 93.0897 72.1902 93.0897 72.2717C93.0897 72.3533 93.0897 72.3533 93.1712 72.3533L93.2526 72.2717C93.3341 72.2717 93.3341 72.2717 93.3341 72.3533C93.3341 72.4349 93.3341 72.5165 93.4155 72.5165C94.3928 72.4349 95.533 72.3533 96.6732 72.2717C96.6732 72.1902 96.8361 71.9455 96.999 71.6192C97.1619 71.3745 97.2434 71.1298 97.2434 70.9666C97.2434 70.8035 97.1619 70.8035 97.0805 70.8035C95.3702 70.885 93.9042 71.1298 92.6825 71.3745C92.6011 71.7007 92.5196 71.9455 92.4382 72.1902C92.2753 72.6796 91.9495 72.9243 91.5423 72.9243C91.1351 72.8427 90.9722 72.598 90.9722 72.1086C91.0537 71.7007 91.2166 71.456 91.4609 71.2929C91.7052 71.0482 92.031 70.7219 92.1939 70.2325C92.3568 69.743 92.5196 69.4983 92.6011 69.4983C92.6825 69.4983 92.6825 69.5799 92.6825 69.6615C92.6825 69.8246 92.6825 69.9062 92.764 69.9062L92.8454 69.9878L92.9269 70.0693V70.1509C93.6598 70.0693 94.4743 69.9878 95.2073 69.9878C95.0444 69.9062 94.8001 69.6615 94.6372 69.3352C94.5557 69.0905 94.3928 68.9273 94.2299 68.7642C93.9856 68.5195 93.8227 68.2748 93.8227 68.1932C93.8227 68.1116 93.8227 68.0301 93.9042 68.0301C93.9856 68.0301 94.0671 68.1116 94.1485 68.1116C94.23 68.1116 94.23 68.1932 94.3114 68.1932C94.3928 68.1932 94.3928 68.1116 94.4743 68.0301C94.4743 67.9485 94.5557 67.9485 94.6372 67.9485C95.0444 68.1116 95.3702 68.2748 95.6959 68.5195C96.0217 68.7642 96.1846 69.0905 96.1846 69.4983C96.1846 69.743 96.0217 69.9878 95.8588 70.0693C96.5104 69.5799 97.1619 69.5799 97.732 69.4983Z" fill="white"/>
<path d="M108.645 68.1118C109.216 68.1933 109.541 68.4381 109.623 68.9275C109.623 69.009 109.623 69.1722 109.541 69.3353C109.46 69.4169 109.46 69.4985 109.46 69.58C109.46 70.2326 109.378 70.8852 109.378 71.5377C109.704 71.5377 109.949 71.4562 110.274 71.4562C110.682 71.4562 110.926 71.6193 111.007 72.0272C111.007 72.3535 110.844 72.5982 110.437 72.7613C110.193 72.7613 109.786 72.8429 109.378 72.9245C109.378 73.8217 109.297 74.719 109.297 75.6163C109.867 75.4532 110.437 75.29 111.007 75.1269C111.089 75.1269 111.17 75.1269 111.17 75.2084C111.17 75.29 111.17 75.3716 111.089 75.3716C111.007 75.4532 110.926 75.4532 110.844 75.5347C110.844 75.6163 110.763 75.6979 110.763 75.861C110.763 75.9426 110.682 76.0242 110.519 76.1057C110.356 76.1873 110.193 76.3504 109.867 76.5136C108.89 77.0846 107.994 77.4924 107.18 77.7372C107.098 77.8187 107.017 77.9819 106.935 78.145C106.854 78.2266 106.772 78.3081 106.609 78.3081C106.447 78.3081 106.202 78.145 105.958 77.9003C105.795 77.7372 105.632 77.4109 105.632 76.9214C105.632 76.7583 105.714 76.5136 105.795 76.3504C105.958 76.1057 106.121 76.0242 106.121 76.0242C106.121 76.1873 106.202 76.1873 106.284 76.1873C106.365 76.1873 106.365 76.1873 106.365 76.1057C106.447 76.1057 106.528 76.1873 106.609 76.2689C106.854 76.2689 107.342 76.1873 107.994 75.9426C107.994 75.861 107.994 75.7794 107.994 75.7794C107.994 74.8822 107.994 73.9033 108.075 73.006C107.831 73.006 107.668 73.0876 107.505 73.0876C107.261 73.1692 107.017 73.2507 106.772 73.2507C106.528 73.2507 106.365 73.1692 106.284 73.006C106.202 72.8429 106.121 72.6797 106.121 72.5982C106.121 72.435 106.202 72.3535 106.284 72.1903C106.447 71.9456 106.609 71.7825 106.609 71.6193C106.691 71.6193 106.691 71.6193 106.691 71.7009C106.691 71.7825 106.691 71.7825 106.772 71.7825C106.772 71.7825 106.854 71.7009 106.854 71.6193C106.935 71.6193 106.935 71.6193 106.935 71.7009C106.935 71.7825 106.935 71.864 107.017 71.864C107.424 71.7825 107.75 71.7825 108.157 71.7009C108.157 70.9668 108.157 70.3142 108.238 69.58C108.238 69.4985 108.157 69.4985 107.994 69.4169C107.913 69.4169 107.912 69.4169 107.912 69.3353C107.994 69.3353 108.075 69.2538 108.075 69.2538C108.075 69.1722 107.994 69.1722 107.994 69.1722C107.913 69.1722 107.912 69.1722 107.912 69.0906C108.075 69.0906 108.238 68.8459 108.401 68.5196C108.238 68.1933 108.483 68.1118 108.645 68.1118ZM114.835 67.5408C115.08 67.5408 115.242 67.6223 115.405 67.7039C115.65 67.8671 115.731 68.0302 115.812 68.1933C115.812 68.3565 115.731 68.5196 115.65 68.6828C115.568 68.8459 115.568 69.0091 115.568 69.1722C115.568 69.8248 115.568 70.6405 115.487 71.4562C115.894 71.3746 116.301 71.293 116.708 71.1299C116.871 71.0483 117.034 70.9668 117.116 70.8036C117.278 70.722 117.523 70.6405 117.686 70.6405C117.93 70.722 118.174 70.8036 118.337 70.9668C118.582 71.1299 118.663 71.3746 118.663 71.7009C118.663 71.864 118.582 72.0272 118.5 72.1087C118.419 72.2719 118.256 72.3535 118.256 72.435C117.93 75.3716 117.441 76.8399 116.708 76.8399C116.301 76.8399 115.975 76.5952 115.975 76.1873C115.975 76.1057 115.894 75.9426 115.65 75.861C115.487 75.7794 115.324 75.6979 115.324 75.6163C115.324 75.5347 115.324 75.3716 115.242 75.3716L115.161 75.29C115.161 75.6979 115.08 76.0242 115.08 76.432C115.08 76.9214 114.835 77.1662 114.509 77.2477C114.102 77.2477 113.858 76.8399 113.776 76.1057C113.858 74.8822 113.939 73.9033 113.939 72.9245C113.858 72.9245 113.776 73.006 113.695 73.006C113.369 73.0876 113.043 73.1692 112.799 73.3323C112.718 74.4743 112.718 75.6979 112.718 76.9214C112.718 77.4924 112.962 77.9819 113.288 78.2266C113.695 78.4713 114.265 78.6344 115.08 78.6344C116.22 78.6344 116.953 78.4713 117.278 78.2266C117.686 77.9819 117.93 77.574 118.011 77.0846C118.011 76.6767 118.093 76.2689 118.093 76.1057C118.093 75.861 118.174 75.7794 118.337 75.7794C118.419 75.861 118.5 76.1057 118.582 76.432C118.582 76.5136 118.663 76.6767 118.744 76.8399C118.744 77.1662 118.826 77.4924 118.826 77.7372C118.826 77.8187 118.907 77.9819 119.152 78.145C119.233 78.3082 119.315 78.5529 119.315 78.7976C119.315 79.287 118.989 79.5317 118.337 79.6949C117.686 79.858 116.708 80.0211 115.405 80.0211C114.021 80.0211 113.043 79.7764 112.473 79.2054C111.822 78.7976 111.496 77.9819 111.496 76.9214C111.496 75.861 111.496 74.8822 111.577 73.9033C111.17 74.2296 110.844 74.3112 110.6 74.3112C110.274 74.148 110.03 73.9033 110.03 73.4955C110.03 73.0876 110.193 72.8429 110.6 72.5982C110.6 72.5982 110.763 72.6797 110.844 72.6797C111.089 72.5982 111.333 72.5166 111.577 72.435C111.577 71.9456 111.659 71.3746 111.659 70.8852C111.659 70.722 111.577 70.5589 111.496 70.4773C111.333 70.3958 111.252 70.3142 111.17 70.2326C111.496 69.7432 111.822 69.4169 112.229 69.4169C112.799 69.4985 113.125 69.7432 113.206 70.151C113.206 70.3142 113.206 70.4773 113.125 70.5589C113.043 70.6405 113.043 70.8036 112.962 70.8852C112.962 71.2115 112.962 71.5377 112.881 71.9456C113.288 71.864 113.695 71.7009 114.102 71.6193C114.184 70.2326 114.184 69.3353 114.184 68.7643C114.184 68.6828 114.102 68.6012 113.939 68.5196C113.939 68.5196 113.858 68.5196 113.858 68.4381C113.939 68.4381 113.939 68.3565 113.939 68.3565C113.939 68.2749 113.858 68.2749 113.776 68.2749C113.776 68.2749 113.695 68.2749 113.695 68.1933C113.858 68.0302 114.021 67.7855 114.184 67.5408C114.509 67.6223 114.672 67.5408 114.835 67.5408ZM115.324 74.8822C115.487 74.9637 115.568 74.9637 115.731 75.0453C116.057 75.2084 116.301 75.29 116.383 75.29C116.464 75.29 116.545 74.9637 116.627 74.2296C116.708 73.6586 116.79 73.0876 116.871 72.435C116.871 72.3535 116.79 72.2719 116.708 72.2719C116.301 72.3535 115.894 72.435 115.487 72.5982C115.405 73.3323 115.324 74.148 115.324 74.8822Z" fill="white"/>
<path d="M130.228 69.4169C130.635 69.4169 130.88 69.58 130.961 69.9879C130.961 70.3142 130.798 70.5589 130.391 70.722C130.147 70.722 129.739 70.8036 129.332 70.8852C129.251 70.8852 129.251 70.8852 129.169 70.8852C129.251 70.9667 129.251 71.1299 129.251 71.293C129.251 71.4561 129.251 71.6193 129.169 71.864C129.169 72.1903 129.169 72.5166 129.088 72.9244C129.414 72.9244 129.739 72.8429 129.984 72.8429C130.391 72.8429 130.635 73.006 130.717 73.4139C130.717 73.7401 130.554 73.9848 130.147 74.148C129.902 74.2296 129.576 74.2296 129.169 74.3111H129.088C129.088 74.9637 129.088 75.6163 129.088 76.3504C129.902 76.0241 130.391 75.861 130.635 75.7794C130.88 75.7794 131.042 75.861 131.042 76.0241C131.042 76.1057 130.961 76.1873 130.961 76.2688C130.961 76.3504 130.88 76.3504 130.798 76.432L130.88 76.5135C130.961 76.5135 130.961 76.5135 130.961 76.432C131.042 76.432 131.042 76.5135 131.124 76.5951C131.287 76.5951 131.775 76.2688 132.427 75.6978C132.834 75.3716 133.241 75.1268 133.567 74.8821V74.2296C133.567 73.4139 133.567 72.5981 133.567 71.9456C133.078 72.0271 132.671 72.1087 132.264 72.1903C131.938 72.2719 131.775 72.3534 131.694 72.435C131.612 72.5166 131.531 72.5166 131.368 72.5166C130.961 72.5166 130.717 72.2719 130.554 71.7824C130.554 71.6193 130.635 71.3746 130.88 71.1299C131.205 70.8851 131.45 70.8036 131.531 70.722H131.613C131.613 70.8036 131.612 70.8036 131.694 70.8852C131.694 70.8852 131.775 70.8852 131.775 70.8036C131.857 70.8036 131.857 70.8036 131.857 70.8852C131.857 70.9667 131.857 71.0483 131.938 71.0483C132.02 71.0483 132.183 71.0483 132.427 70.9667C132.59 70.9667 132.834 70.8852 133.078 70.8852C133.241 70.8852 133.404 70.8852 133.486 70.8036C133.486 70.151 133.486 69.58 133.486 69.009C133.404 68.9274 133.404 68.8459 133.241 68.8459C133.16 68.8459 133.16 68.8459 133.16 68.7643C133.241 68.7643 133.323 68.6827 133.323 68.6827C133.241 68.6827 133.241 68.6012 133.16 68.6012C133.078 68.6012 133.078 68.5196 133.078 68.5196C133.241 68.438 133.323 68.3565 133.404 68.1933C133.486 68.0302 133.649 67.9486 133.73 67.7855C133.893 67.6223 134.056 67.6223 134.219 67.6223C134.463 67.6223 134.626 67.7855 134.789 67.9486C135.033 68.1117 135.115 68.2749 135.115 68.5196C135.115 68.6827 135.033 68.9275 134.952 69.1722V70.151C135.522 70.0694 135.929 70.0694 136.255 70.0694C136.418 70.0694 136.499 70.0694 136.581 70.151C136.499 69.8247 136.336 69.58 136.173 69.3353C135.848 68.9274 135.685 68.7643 135.685 68.6827C135.685 68.6012 135.685 68.5196 135.848 68.5196C135.929 68.5196 136.01 68.5196 136.092 68.6012C136.255 68.6827 136.336 68.7643 136.336 68.7643C136.418 68.7643 136.499 68.7643 136.581 68.7643C136.662 68.7643 136.743 68.7643 136.743 68.7643C136.906 68.7643 137.151 69.009 137.558 69.4169C137.884 69.7432 138.047 70.0694 138.047 70.3142C138.047 70.4773 137.965 70.6404 137.884 70.8036C137.721 70.8852 137.558 70.9667 137.395 70.9667C137.151 70.9667 136.988 70.8852 136.906 70.8036C136.906 70.8852 136.906 70.8852 136.906 70.8852C136.906 71.0483 136.825 71.2114 136.581 71.2114C136.336 71.2114 135.929 71.293 135.522 71.3746C135.359 71.3746 135.115 71.4561 134.87 71.4561C134.87 72.1087 134.87 72.8429 134.87 73.4954C135.033 73.6586 135.277 73.9033 135.522 74.2296C135.603 74.0664 135.766 73.9033 135.929 73.6586C136.255 73.0876 136.499 72.6797 136.499 72.5981C136.499 72.435 136.418 72.3534 136.255 72.2719C136.255 72.1903 136.336 72.1087 136.581 72.0271C136.825 71.9456 137.069 71.864 137.314 71.864C137.476 71.864 137.639 71.9456 137.884 72.1903C138.128 72.435 138.209 72.5981 138.209 72.7613C138.209 72.9244 138.128 73.0876 137.965 73.2507C137.721 73.4139 137.558 73.577 137.314 73.7401C137.069 73.9848 136.825 74.148 136.662 74.3927C136.499 74.5558 136.418 74.6374 136.336 74.6374C136.255 74.6374 136.173 74.6374 136.173 74.5558C136.092 74.5558 136.01 74.5558 135.929 74.6374C136.336 75.1268 136.906 75.6978 137.476 76.2688C137.884 76.5951 138.209 76.8398 138.535 77.0845C138.698 77.2477 138.861 77.3293 138.942 77.3293C139.024 77.4108 139.105 77.4108 139.105 77.4924C139.105 77.6555 139.024 77.6555 138.78 77.6555C138.698 77.7371 138.535 77.9818 138.372 78.3081C138.209 78.5528 137.965 78.6344 137.558 78.6344C137.232 78.6344 136.743 78.0634 136.173 76.9214C135.848 76.3504 135.522 75.6978 135.115 75.1268C135.115 75.1268 135.115 75.1268 135.033 75.0453C135.033 76.3504 135.033 77.7371 135.033 79.0422C134.952 79.6132 134.87 80.0211 134.544 80.2658C134.382 80.5105 134.137 80.6737 133.811 80.6737C133.567 80.6737 133.241 80.5105 132.997 80.1842C132.916 79.9395 132.753 79.7764 132.59 79.6132C132.183 79.4501 132.02 79.287 132.02 79.2054C132.02 79.1238 132.02 79.0422 131.938 78.9607C131.938 78.8791 131.775 78.8791 131.613 78.7975C131.531 78.7975 131.45 78.716 131.45 78.6344C131.45 78.5528 131.45 78.4712 131.531 78.4712C131.612 78.4712 131.857 78.5528 132.264 78.6344C132.671 78.716 133.078 78.7975 133.404 78.7975C133.567 78.7975 133.649 78.716 133.649 78.5528C133.73 77.9003 133.73 76.8398 133.73 75.5347C133.649 75.6978 133.486 75.7794 133.323 76.0241C132.753 76.8398 132.264 77.3293 131.775 77.574C131.694 77.6555 131.612 77.8187 131.531 77.9003C131.45 77.9818 131.368 78.0634 131.287 78.0634C131.124 78.0634 130.88 77.9003 130.717 77.6555C130.554 77.4924 130.472 77.1661 130.391 76.8398C130.147 77.003 129.658 77.2477 129.006 77.4924C128.273 77.7371 127.703 77.9818 127.215 78.3081C126.97 78.716 126.726 78.8791 126.563 78.8791C126.156 78.7975 125.749 78.4713 125.586 77.9003C125.586 77.6555 125.667 77.4924 125.83 77.2477C125.993 77.003 126.237 76.8398 126.563 76.5951C126.644 76.5951 126.644 76.5951 126.644 76.6767C126.644 76.7583 126.644 76.8398 126.726 76.8398C126.726 76.8398 126.807 76.7583 126.807 76.6767C126.889 76.6767 126.889 76.6767 126.889 76.7583C126.889 76.8398 126.889 76.9214 126.97 76.9214C127.215 76.8398 127.54 76.7583 127.866 76.5951C127.866 76.432 127.866 76.1873 127.948 75.861C127.948 75.3716 127.948 74.8006 127.948 74.148C127.785 74.148 127.622 74.2296 127.459 74.2296C127.215 74.3111 127.052 74.3927 126.807 74.3927C126.563 74.3927 126.4 74.3111 126.319 74.2296C126.237 74.0664 126.156 73.9033 126.156 73.8217C126.156 73.7401 126.156 73.577 126.237 73.4139C126.4 73.1691 126.563 73.006 126.563 72.9244C126.644 72.9244 126.644 72.9244 126.644 73.006C126.644 73.0876 126.644 73.0876 126.726 73.0876L126.807 73.006C126.889 73.006 126.889 73.006 126.889 73.0876C126.889 73.1691 126.889 73.1691 126.97 73.2507C127.296 73.1691 127.622 73.1691 127.948 73.0876C127.948 72.5166 127.948 72.1087 127.948 71.7824C127.948 71.7009 127.866 71.6193 127.785 71.6193C127.703 71.6193 127.703 71.6193 127.703 71.5377C127.785 71.5377 127.785 71.5377 127.785 71.4561L127.703 71.3746L127.622 71.293C127.703 71.293 127.703 71.2114 127.785 71.1299L127.866 71.0483C127.785 71.0483 127.622 71.0483 127.459 71.1299C127.215 71.2114 127.052 71.293 126.807 71.293C126.563 71.293 126.4 71.2114 126.319 71.1299C126.237 70.9667 126.156 70.8036 126.156 70.722C126.156 70.6404 126.156 70.4773 126.237 70.3142C126.4 70.0694 126.563 69.9063 126.563 69.7432C126.644 69.7432 126.644 69.7432 126.644 69.8247C126.644 69.9063 126.644 69.9063 126.726 69.9063L126.807 69.8247C126.889 69.8247 126.889 69.8247 126.889 69.9063C126.889 69.9879 126.889 69.9879 126.97 70.0694C127.948 69.7432 129.006 69.58 130.228 69.4169ZM131.042 72.5166C131.124 72.5166 131.205 72.5166 131.205 72.5981C131.287 72.6797 131.368 72.6797 131.368 72.6797C131.368 72.6797 131.45 72.6797 131.45 72.5981H131.531C131.694 72.5981 132.02 72.7613 132.427 73.1691C132.753 73.577 132.997 73.8217 132.997 74.148C132.997 74.719 132.753 74.9637 132.183 74.9637C132.02 74.9637 131.775 74.8006 131.613 74.3927C131.531 74.148 131.368 73.8217 131.205 73.4954C131.124 73.3323 131.042 73.1691 130.88 73.006C130.717 72.8429 130.635 72.7613 130.635 72.6797C130.88 72.5981 130.88 72.5166 131.042 72.5166Z" fill="white"/>
<path d="M158 74.6374C158.489 74.6374 158.815 74.8822 158.815 75.4532C158.815 75.6979 158.652 75.7794 158.326 75.861C158 75.861 157.511 75.9426 156.941 76.0242C156.778 76.0242 156.534 76.1057 156.371 76.1057C156.371 77.003 156.371 77.9819 156.29 78.8791C156.127 80.0211 155.883 80.5921 155.638 80.6737C155.312 80.6737 154.987 80.1843 154.824 79.287V76.2689C154.091 76.3504 153.358 76.5136 152.706 76.5952C152.299 76.6767 152.055 76.7583 151.973 76.8399C151.892 76.9214 151.729 76.9214 151.566 76.9214C151.077 76.9214 150.833 76.5952 150.67 76.0242C150.67 75.9426 150.67 75.9426 150.67 75.861C150.589 75.861 150.507 75.9426 150.344 75.9426C150.1 75.9426 149.937 75.7794 149.774 75.4532C149.611 75.2084 149.53 75.0453 149.367 74.719C149.286 74.6374 149.286 74.5559 149.204 74.4743C149.204 75.861 149.123 77.6556 149.123 79.6948C149.123 80.1843 148.878 80.5106 148.39 80.5106C148.308 80.5106 148.145 80.429 147.983 80.3474C147.82 80.1843 147.738 80.1027 147.738 80.0211C147.738 79.7764 147.738 79.2054 147.82 78.3897C147.82 77.4924 147.82 76.432 147.901 75.1269V75.0453C147.901 75.1269 147.82 75.1269 147.82 75.1269C147.575 75.4532 147.168 76.0242 146.598 76.6767C146.272 77.0846 145.947 77.2477 145.784 77.2477C145.621 77.2477 145.539 77.3293 145.376 77.4109C145.295 77.4924 145.214 77.6556 145.051 77.7372C144.969 77.8187 144.888 77.9003 144.806 77.9003C144.725 77.9003 144.643 77.8187 144.643 77.6556C144.806 77.3293 145.051 76.8399 145.458 76.3504C145.784 75.861 146.109 75.4532 146.435 74.9637C146.842 74.3112 147.168 73.8217 147.25 73.4955C147.25 73.4955 147.25 73.4139 147.25 73.3323C147.087 73.4139 146.924 73.4139 146.761 73.4139C146.517 73.4955 146.354 73.577 146.272 73.6586C146.191 73.7402 146.109 73.7402 145.947 73.7402C145.539 73.7402 145.295 73.4955 145.132 73.006C145.132 72.8429 145.214 72.5982 145.458 72.3535C145.784 72.1087 146.028 72.0272 146.109 71.9456C146.191 71.9456 146.191 71.9456 146.191 71.9456C146.191 72.0272 146.191 72.0272 146.272 72.0272C146.272 72.0272 146.354 72.0272 146.354 71.9456C146.435 71.9456 146.435 71.9456 146.435 72.0272C146.435 72.1087 146.435 72.1903 146.517 72.1903C146.598 72.1903 146.761 72.1903 147.005 72.1087C147.168 72.1087 147.331 72.0272 147.575 72.0272C147.657 72.0272 147.738 72.0272 147.901 72.0272V70.9668C147.901 70.8852 147.82 70.8036 147.738 70.8036C147.657 70.8036 147.657 70.8036 147.657 70.722C147.738 70.722 147.738 70.722 147.738 70.6405L147.657 70.5589L147.575 70.4773C147.657 70.4773 147.657 70.3958 147.738 70.3142C147.738 70.3142 147.82 70.2326 147.82 70.151C147.82 70.151 147.82 70.151 147.738 70.151C147.412 70.2326 147.168 70.3142 147.005 70.3142C146.924 70.3142 146.842 70.3142 146.761 70.3142H146.517C146.435 70.3142 146.272 70.3142 146.109 70.3958C145.947 70.4773 145.784 70.5589 145.702 70.5589C145.621 70.4773 145.539 70.3958 145.539 70.3142C145.539 70.151 145.865 69.9879 146.354 69.8248C147.087 69.4985 147.738 69.2538 148.227 68.9275C148.634 68.6828 148.797 68.6012 148.878 68.4381C148.878 68.3565 148.797 68.3565 148.716 68.3565C148.634 68.3565 148.634 68.2749 148.634 68.1933C148.797 68.1933 148.878 68.1933 148.878 68.1118C148.878 68.0302 148.797 68.0302 148.716 68.0302C148.634 68.0302 148.634 67.9486 148.634 67.8671C148.716 67.8671 148.96 67.7855 149.204 67.7855C149.449 67.7039 149.611 67.7039 149.693 67.7039C150.019 67.7039 150.263 67.7855 150.426 68.0302C150.589 68.2749 150.752 68.5196 150.752 68.9275C150.752 69.0906 150.67 69.2538 150.507 69.2538C150.263 69.3353 150.1 69.3353 150.019 69.4169C149.774 69.58 149.367 69.6616 148.878 69.8248C149.123 69.9063 149.286 70.151 149.286 70.3958C149.286 70.6405 149.204 70.9668 149.123 71.293C149.123 71.4562 149.123 71.6193 149.123 71.7825C149.611 71.7009 150.019 71.7009 150.344 71.7009C150.67 71.7009 150.833 71.7825 150.915 72.0272C150.915 71.9456 150.996 71.9456 151.077 71.9456C151.159 71.9456 151.24 71.9456 151.322 72.0272C151.403 72.1087 151.485 72.1087 151.566 72.1087C151.648 72.1087 151.648 72.1087 151.729 72.1087L151.81 72.0272C152.055 72.0272 152.381 72.1903 152.869 72.5982C153.276 72.9245 153.521 73.1692 153.602 73.4139C153.602 73.9849 153.276 74.3112 152.706 74.3112C152.462 74.3112 152.218 74.148 152.055 73.7402C151.892 73.4955 151.729 73.1692 151.566 72.9245C151.485 72.7613 151.322 72.5982 151.159 72.435C151.077 72.3535 150.996 72.2719 150.915 72.1903C150.915 72.2719 150.915 72.2719 150.915 72.3535C150.915 72.5166 150.833 72.6797 150.589 72.6797C150.344 72.6797 150.1 72.7613 149.611 72.8429C149.449 72.8429 149.286 72.9245 149.041 72.9245C149.041 73.0876 149.041 73.2507 149.041 73.4139C149.041 73.577 149.041 73.6586 149.041 73.7402C149.123 73.7402 149.123 73.8217 149.204 73.8217H149.286C149.286 73.8217 149.367 73.8217 149.449 73.8217C149.611 73.8217 149.937 73.9849 150.344 74.3112C150.67 74.5559 150.915 74.8006 150.915 75.0453C150.915 75.1269 150.915 75.1269 150.915 75.2084C151.24 75.0453 151.485 74.8822 151.566 74.8006C151.648 74.8006 151.648 74.8006 151.648 74.8006C151.648 74.8822 151.648 74.8822 151.729 74.9637C151.729 74.9637 151.81 74.9637 151.81 74.8822C151.892 74.8822 151.892 74.8822 151.892 74.9637C151.892 75.0453 151.973 75.1269 152.055 75.1269C152.136 75.1269 152.381 75.1269 152.706 75.0453C152.951 75.0453 153.276 74.9637 153.521 74.9637C153.847 74.9637 154.172 74.8822 154.58 74.8006C154.58 73.006 154.58 71.2115 154.58 69.4169C154.58 69.1722 154.498 69.009 154.417 69.009C154.335 69.009 154.254 69.009 154.254 68.9275C154.335 68.8459 154.335 68.8459 154.417 68.7643H154.172C154.091 68.7643 154.091 68.6828 154.091 68.6012C154.172 68.6012 154.335 68.5196 154.417 68.3565C154.498 68.1118 154.579 67.9486 154.661 67.8671C154.824 67.7039 154.987 67.5408 155.231 67.5408C155.394 67.5408 155.638 67.6223 155.964 67.7855C156.208 67.8671 156.371 68.0302 156.371 68.1933C156.371 68.5196 156.371 68.7643 156.29 69.009C156.29 69.58 156.208 70.151 156.208 70.8036C156.208 71.7009 156.127 72.5982 156.127 73.4139C156.127 73.8217 156.127 74.2296 156.127 74.6374C157.023 74.719 157.593 74.6374 158 74.6374ZM152.869 69.4169C153.195 69.4985 153.602 69.6616 154.009 69.9879C154.335 70.3958 154.498 70.722 154.498 71.0483C154.498 71.4562 154.254 71.6193 153.847 71.7009C153.602 71.7009 153.276 71.4562 153.032 70.8852C152.788 70.6405 152.462 70.3958 152.218 70.151C151.892 69.9879 151.729 69.8248 151.729 69.7432C151.729 69.58 151.729 69.58 151.81 69.4985C151.892 69.4985 151.973 69.4985 152.055 69.58C152.218 69.58 152.299 69.58 152.381 69.58C152.462 69.58 152.462 69.4985 152.543 69.4985C152.706 69.4169 152.788 69.4169 152.869 69.4169Z" fill="white"/>
<path d="M169.484 67.3775C169.646 67.3775 169.809 67.5406 169.972 67.7038C170.135 67.8669 170.217 68.0301 170.298 68.1932C170.379 68.1932 170.379 68.1116 170.461 68.1116C170.624 68.1116 170.868 68.1932 171.194 68.3564C171.357 68.1932 171.438 68.0301 171.52 67.8669C171.52 67.7853 171.52 67.7854 171.438 67.7038C171.438 67.7038 171.438 67.7038 171.438 67.6222C171.52 67.6222 171.52 67.6222 171.601 67.5406C171.601 67.5406 171.601 67.4591 171.52 67.4591C171.438 67.4591 171.438 67.4591 171.438 67.3775C171.52 67.3775 171.601 67.2959 171.764 67.2959C171.845 67.2959 171.927 67.2144 171.927 67.2144C172.416 67.3775 172.741 67.5406 172.823 67.8669C172.823 67.9485 172.741 68.1116 172.66 68.1932C172.578 68.2748 172.497 68.3564 172.416 68.3564C172.253 68.5195 172.09 68.6826 172.008 68.8458C172.416 69.1721 172.66 69.4168 172.741 69.6615C172.741 69.9878 172.578 70.1509 172.253 70.1509C171.845 70.1509 171.52 69.9878 171.275 69.6615C171.275 69.6615 171.275 69.6615 171.275 69.5799C170.95 69.8246 170.705 69.9062 170.624 69.9062C170.542 69.9062 170.461 69.9062 170.379 69.9062C170.298 69.9062 170.217 69.9062 170.217 69.9062C170.217 69.9062 170.135 69.9878 169.972 70.0693L169.891 70.1509C169.891 70.3141 169.728 70.4772 169.565 70.5588C169.484 70.5588 169.321 70.6403 169.076 70.6403C168.913 70.7219 168.669 70.7219 168.506 70.7219C168.425 70.7219 168.425 70.7219 168.343 70.8035C168.343 70.9666 168.343 71.0482 168.343 71.2113C168.343 71.2929 168.343 71.456 168.343 71.5376C168.669 71.456 168.995 71.3745 169.402 71.3745C169.646 71.3745 169.809 71.456 169.891 71.7008C169.891 71.9455 169.809 72.1086 169.565 72.1902C169.484 72.2718 169.321 72.2718 169.158 72.3533C168.995 72.3533 168.832 72.4349 168.588 72.4349C168.506 72.4349 168.506 72.4349 168.425 72.4349C168.425 72.6796 168.425 72.9243 168.506 73.169V73.3322C170.461 73.169 172.416 73.0059 174.37 72.9243C174.37 72.7612 174.452 72.5165 174.452 72.1086C174.37 72.1086 174.289 72.1086 174.289 72.1086C174.126 72.1086 173.963 72.1902 173.8 72.1902C173.719 72.1902 173.637 72.1902 173.556 72.2718C173.474 72.3533 173.393 72.3533 173.311 72.3533C173.149 72.3533 173.067 72.2718 172.986 72.1902C172.904 72.027 172.904 71.9455 172.823 71.8639C172.823 71.7823 172.823 71.7008 172.904 71.5376C173.067 71.3745 173.149 71.2113 173.149 71.1298C173.23 71.1298 173.23 71.1298 173.23 71.2113C173.23 71.2113 173.23 71.2929 173.311 71.2929C173.311 71.2929 173.393 71.2929 173.393 71.2113H173.474C173.474 71.2929 173.474 71.2929 173.556 71.2929C173.963 71.2929 174.37 71.2113 174.777 71.2113C174.777 70.9666 174.859 70.7219 174.859 70.4772H174.777C174.533 70.4772 174.289 70.5588 174.126 70.5588C174.044 70.5588 173.882 70.6403 173.8 70.6403C173.719 70.7219 173.556 70.8035 173.474 70.8035C173.311 70.8035 173.149 70.7219 173.067 70.6403C172.986 70.4772 172.986 70.3956 172.904 70.314C172.904 70.2325 172.904 70.1509 172.986 69.9878C173.149 69.8246 173.23 69.6615 173.23 69.5799C173.311 69.5799 173.311 69.5799 173.311 69.5799C173.311 69.6615 173.311 69.6615 173.393 69.6615C173.393 69.6615 173.474 69.6615 173.474 69.5799C173.556 69.5799 173.556 69.5799 173.556 69.6615C173.556 69.7431 173.556 69.7431 173.637 69.7431C174.044 69.6615 174.533 69.6615 175.022 69.5799C175.022 69.4168 175.022 69.2536 175.103 69.0905C175.103 69.0089 175.022 68.9273 174.859 68.9273C174.615 68.9273 174.289 68.9273 173.963 69.0089C173.719 69.1721 173.556 69.1721 173.556 69.1721C173.474 69.1721 173.311 69.0905 173.149 68.9273C173.067 68.7642 172.986 68.6826 172.986 68.6011C172.986 68.4379 173.149 68.2748 173.311 68.1116C173.474 68.0301 173.556 67.9485 173.637 67.8669H173.719C173.719 67.9485 173.719 67.9485 173.719 67.9485C173.719 67.9485 173.8 67.9485 173.8 67.8669C173.8 67.8669 173.882 67.8669 173.882 67.9485C173.882 68.0301 173.882 68.0301 173.963 68.0301C174.126 68.0301 174.37 67.9485 174.533 67.9485C174.777 67.9485 174.94 67.9485 175.022 67.8669C175.103 67.8669 175.185 67.7854 175.348 67.7038C175.429 67.7038 175.51 67.6222 175.673 67.6222C175.918 67.6222 176.081 67.7038 176.325 67.8669C176.569 68.1116 176.651 68.2748 176.651 68.5195C176.651 68.6826 176.569 68.7642 176.488 68.9273C176.406 69.0089 176.325 69.0905 176.243 69.1721C176.081 70.3141 175.918 71.456 175.755 72.5165V72.598C175.918 72.598 176.162 72.598 176.325 72.5165C176.569 72.3533 176.732 72.2718 176.976 72.2718C177.302 72.3533 177.628 72.5165 177.791 72.6796C178.117 73.0059 178.198 73.2506 178.198 73.5769C178.198 73.9847 177.791 74.1479 177.058 74.1479C176.895 74.2295 176.732 74.311 176.569 74.4742C176.406 74.6373 176.243 74.6373 176.162 74.6373C176.081 74.6373 175.999 74.6373 175.999 74.6373C175.918 74.6373 175.836 74.5557 175.836 74.5557C175.755 74.5557 175.673 74.6373 175.592 74.7189C175.51 74.8005 175.429 74.8005 175.348 74.8005C175.185 74.8005 175.103 74.7189 175.103 74.5557C175.103 74.4742 175.266 74.311 175.592 74.0663C175.755 73.9032 175.918 73.74 175.918 73.5769C175.918 73.4137 175.836 73.4137 175.755 73.4137C172.416 73.5769 169.565 73.8216 167.285 74.2295C167.203 74.2295 167.122 74.2295 167.04 74.1479C166.959 74.3926 166.877 74.6373 166.796 74.882C166.633 75.2899 166.307 75.5346 165.819 75.5346C165.411 75.453 165.249 75.2083 165.249 74.7189C165.33 74.3926 165.574 74.1479 165.737 74.0663C165.982 73.8216 166.226 73.5769 166.47 73.169C166.633 72.7612 166.796 72.5165 166.959 72.5165C167.04 72.5165 167.04 72.598 167.04 72.6796C167.04 72.8428 167.04 72.9243 167.122 72.9243C167.122 72.9243 167.122 73.0059 167.203 73.0059L167.285 73.0875C167.285 73.169 167.285 73.169 167.285 73.2506C167.366 73.2506 167.448 73.169 167.529 73.169C167.61 73.169 167.692 73.169 167.773 73.169C167.773 72.8428 167.692 72.2718 167.692 71.5376C167.61 70.8035 167.529 70.1509 167.529 69.7431C167.448 69.6615 167.448 69.5799 167.366 69.4168C167.203 69.4168 167.122 69.4168 167.122 69.3352C167.203 69.3352 167.203 69.2536 167.203 69.2536C167.04 69.2536 166.959 69.2536 166.959 69.1721C167.04 69.0905 167.203 68.9273 167.285 68.7642C167.692 68.3564 167.936 68.1932 168.099 68.1932C168.18 68.1932 168.343 68.2748 168.588 68.4379C168.588 68.4379 168.588 68.4379 168.669 68.5195C168.995 68.3563 169.321 68.1932 169.402 67.9485C169.402 67.9485 169.402 67.8669 169.402 67.7853C169.321 67.7853 169.321 67.7038 169.321 67.6222C169.402 67.6222 169.484 67.6222 169.565 67.5406C169.565 67.4591 169.484 67.4591 169.402 67.3775C168.913 67.4591 169.158 67.4591 169.484 67.3775ZM173.311 74.1479C173.719 74.1479 174.044 74.311 174.289 74.5557C174.533 74.8005 174.615 75.0452 174.615 75.2899C174.615 75.453 174.289 75.6162 173.719 75.7793C173.393 75.9425 172.986 76.1056 172.66 76.2687C172.497 76.3503 172.334 76.4319 172.253 76.4319C173.8 76.3503 175.103 76.2687 176.243 76.2687C176.651 76.3503 176.814 76.595 176.895 76.9213C176.895 77.2476 176.651 77.4107 176.243 77.4107H173.556C173.149 77.4107 172.823 77.4107 172.578 77.4107C172.66 77.6554 172.66 77.9002 172.66 78.1449C172.66 79.0422 172.497 79.6947 172.253 80.1841C172.008 80.6736 171.601 80.8367 171.031 80.8367C170.705 80.8367 170.461 80.6736 170.298 80.5104C170.217 80.3473 170.054 80.1841 169.972 80.1026C169.891 80.021 169.728 79.8579 169.646 79.8579C169.484 79.7763 169.402 79.6947 169.402 79.6131C169.402 79.5316 169.402 79.5316 169.321 79.45C169.321 79.3684 169.239 79.3684 169.158 79.2869C169.076 79.2053 168.995 79.2053 168.995 79.2053C168.995 79.1237 168.995 79.1237 169.076 79.1237C169.158 79.1237 169.402 79.2053 169.809 79.3684C169.972 79.45 170.298 79.45 170.542 79.5316C171.112 79.5316 171.357 78.9606 171.357 77.9002C171.357 77.8186 171.357 77.737 171.275 77.6554C170.298 77.737 169.484 77.737 168.751 77.8186C167.855 77.9817 167.285 78.1449 166.959 78.1449C166.552 78.1449 166.307 77.9002 166.226 77.4107C166.226 77.0844 166.47 76.8397 167.04 76.595C167.04 76.595 167.122 76.595 167.122 76.6766C167.122 76.7582 167.122 76.7582 167.122 76.7582C167.122 76.7582 167.203 76.7582 167.285 76.6766H167.366C167.366 76.6766 167.366 76.7582 167.448 76.8397C167.529 76.8397 168.425 76.7582 170.054 76.6766C170.135 76.6766 170.298 76.6766 170.379 76.6766H170.298C170.135 76.595 170.054 76.5134 169.972 76.4319C170.054 76.1056 170.217 75.8609 170.624 75.8609C171.031 75.8609 171.357 75.9425 171.683 76.1056C171.683 76.1056 171.764 76.1056 171.764 76.024C172.171 75.7793 172.497 75.5346 172.497 75.3715C172.497 75.2899 172.416 75.2899 172.334 75.2899C172.008 75.2899 171.52 75.3715 170.705 75.453C170.379 75.453 169.891 75.6162 169.239 75.7793C169.076 75.8609 168.995 75.8609 168.913 75.8609C168.832 75.8609 168.751 75.8609 168.751 75.8609C168.181 75.7793 167.936 75.453 167.936 75.0452C168.018 74.882 168.099 74.7189 168.262 74.6373C168.506 74.4742 168.751 74.4742 168.832 74.4742C168.832 74.4742 168.913 74.4742 168.913 74.5557C168.913 74.5557 168.913 74.6373 168.832 74.6373C168.832 74.6373 168.832 74.6373 168.913 74.6373C168.913 74.6373 168.995 74.6373 168.995 74.5557C168.995 74.5557 168.995 74.5557 169.076 74.6373C169.076 74.7189 169.158 74.7189 169.158 74.7189C169.646 74.7189 170.217 74.7189 170.868 74.6373C171.927 74.4742 172.578 74.3926 172.66 74.3926C172.66 74.3926 172.741 74.311 172.904 74.2295C172.986 74.1479 173.149 74.1479 173.311 74.1479ZM170.624 69.0089L170.542 68.9273C170.461 68.8458 170.379 68.7642 170.217 68.6826C170.135 68.7642 170.054 68.7642 169.891 68.8458C169.565 68.9273 169.239 69.0089 168.832 69.0905C168.669 69.0905 168.506 69.1721 168.343 69.1721C168.343 69.2536 168.343 69.3352 168.262 69.3352C168.181 69.4168 168.181 69.4983 168.181 69.6615C168.181 69.8246 168.181 69.9062 168.181 70.0693C168.506 69.9878 168.913 69.9062 169.321 69.8246C169.484 69.8246 169.646 69.9062 169.646 69.9878C169.728 69.8246 169.891 69.6615 170.135 69.4168C170.379 69.2536 170.542 69.1721 170.624 69.0089ZM171.683 70.1509C172.171 70.3141 172.497 70.4772 172.578 70.8035C172.578 70.8851 172.497 71.0482 172.416 71.1298C172.334 71.2113 172.253 71.2113 172.171 71.2929L172.09 71.3745C172.497 71.7823 172.741 72.1086 172.741 72.4349C172.741 72.6796 172.578 72.7612 172.334 72.8428C172.008 72.8428 171.683 72.598 171.357 72.1086C171.357 72.1086 171.357 72.1086 171.275 72.1902C170.868 72.5165 170.542 72.6796 170.379 72.6796C170.298 72.6796 170.217 72.6796 170.217 72.6796C170.135 72.6796 170.135 72.6796 170.054 72.6796C170.054 72.6796 169.972 72.7612 169.809 72.8428C169.728 72.9243 169.646 73.0059 169.565 73.0059C169.484 73.0059 169.484 73.0059 169.484 72.9243C169.565 72.7612 169.728 72.5165 170.135 72.1086C170.379 71.9455 170.542 71.7008 170.705 71.5376C170.542 71.456 170.461 71.3745 170.379 71.2929C169.972 71.1298 169.809 70.9666 169.809 70.8851C169.809 70.8035 169.809 70.7219 169.891 70.7219C169.891 70.7219 169.972 70.7219 170.054 70.8035C170.135 70.8035 170.217 70.8035 170.217 70.8035C170.217 70.8035 170.298 70.8035 170.298 70.7219C170.298 70.7219 170.379 70.6403 170.461 70.6403C170.705 70.6403 171.031 70.7219 171.275 70.8851C171.357 70.8035 171.357 70.8035 171.357 70.7219C171.357 70.6403 171.357 70.5588 171.275 70.5588C171.275 70.5588 171.275 70.5588 171.275 70.4772C171.357 70.4772 171.357 70.4772 171.438 70.4772C171.438 70.4772 171.438 70.3956 171.357 70.3956L171.275 70.314C171.357 70.314 171.438 70.2325 171.52 70.1509C171.52 70.1509 171.601 70.1509 171.683 70.1509Z" fill="white"/>
<path d="M186.098 70.885C186.017 70.885 185.935 70.885 185.935 70.885C185.691 71.0482 185.446 71.1297 185.202 71.1297C184.958 71.1297 184.795 71.0482 184.713 70.885C184.632 70.7219 184.551 70.5588 184.551 70.4772C184.551 70.314 184.551 70.2325 184.632 70.0693C184.876 69.8246 184.958 69.5799 184.958 69.4983C185.039 69.4983 185.039 69.4983 185.039 69.5799C185.039 69.6615 185.039 69.6615 185.121 69.6615L185.202 69.5799C185.284 69.5799 185.284 69.5799 185.284 69.6615C185.284 69.743 185.284 69.8246 185.365 69.8246C186.505 69.6615 187.808 69.4983 189.193 69.2536C189.6 69.2536 189.763 69.4168 189.844 69.743C189.844 70.0693 189.682 70.314 189.356 70.3956C189.111 70.4772 188.704 70.5588 188.216 70.6403C187.89 70.7219 187.564 70.7219 187.238 70.8035C187.32 70.8035 187.32 70.885 187.32 70.885C187.483 71.0482 187.564 71.2113 187.564 71.3745C187.483 71.7007 187.32 71.9455 187.075 72.1902C186.912 72.598 186.75 73.0875 186.505 73.5769C186.75 73.5769 187.075 73.4953 187.32 73.4137C187.564 73.3322 187.727 73.3322 187.971 73.2506C188.216 73.0875 188.378 73.0875 188.46 73.0875C188.786 73.0875 189.03 73.169 189.274 73.3322C189.437 73.4953 189.519 73.6585 189.6 73.8216C189.6 73.8216 189.6 73.8216 189.6 73.74C189.844 73.6585 190.089 73.4953 190.414 73.2506C190.496 73.2506 190.577 73.2506 190.577 73.3322C190.577 73.4137 190.577 73.4953 190.659 73.4953C190.74 73.4953 190.822 73.4137 190.822 73.3322C190.903 73.3322 190.903 73.3322 190.985 73.4137C190.985 73.4953 190.985 73.4953 191.066 73.5769C191.147 73.5769 191.31 73.5769 191.473 73.5769C191.473 73.0059 191.392 72.4349 191.392 71.8639C191.392 71.7823 191.31 71.7007 191.229 71.6192C191.147 71.6192 191.066 71.5376 191.066 71.5376C191.147 71.456 191.229 71.3745 191.229 71.2929C191.066 71.2929 190.985 71.2929 190.985 71.2113C191.066 71.0482 191.229 70.885 191.473 70.6403C191.147 70.7219 190.903 70.7219 190.659 70.7219C190.415 70.7219 190.252 70.6403 190.17 70.5588C190.089 70.314 190.007 70.1509 190.007 70.0693C190.007 69.9878 190.089 69.8246 190.17 69.6615C190.333 69.4168 190.496 69.2536 190.496 69.0905C190.577 69.0905 190.577 69.0905 190.659 69.172C190.659 69.2536 190.659 69.2536 190.74 69.2536C190.822 69.2536 190.822 69.172 190.822 69.172C190.903 69.172 190.903 69.172 190.903 69.2536C190.903 69.3352 190.903 69.4168 190.985 69.4168C192.695 69.172 194.65 68.9273 196.849 68.6826C197.256 68.6826 197.5 68.8458 197.582 69.2536C197.582 69.6615 197.419 69.9062 197.011 69.9878C196.686 70.0693 196.278 70.0693 195.871 70.1509C196.116 70.2325 196.197 70.3956 196.278 70.4772C196.278 70.7219 196.278 70.9666 196.197 71.1297C196.197 71.6192 196.197 72.1086 196.197 72.6796C196.197 72.8427 196.197 73.0059 196.197 73.2506C196.604 73.2506 197.011 73.2506 197.337 73.2506C197.744 73.2506 198.07 73.4953 198.233 74.0663C198.233 74.4742 197.907 74.6373 197.337 74.6373C196.93 74.6373 196.523 74.6373 196.116 74.6373C196.116 74.7189 196.116 74.8004 196.116 74.882C196.116 76.3503 196.116 77.8186 196.116 79.2053C195.953 80.3473 195.708 80.9998 195.383 81.0814C194.975 81.0814 194.731 80.592 194.568 79.6131V74.5557C193.998 74.6373 193.428 74.6373 192.939 74.7189C192.858 76.024 192.613 77.2476 192.288 78.3896C192.125 78.7974 191.88 79.1237 191.718 79.45C191.473 79.8578 191.229 80.021 190.985 80.021C190.74 80.021 190.659 80.1026 190.496 80.1841C190.333 80.592 190.17 80.7551 190.17 80.7551C190.007 80.7551 190.007 80.6736 190.007 80.5104C190.252 79.6947 190.659 78.6343 191.147 77.4107C191.392 76.7582 191.555 75.9424 191.636 74.9636C191.392 75.0452 191.229 75.0452 191.066 75.1267C190.822 75.2899 190.659 75.3714 190.577 75.3714C190.007 75.2899 189.682 75.0452 189.6 74.5557C189.6 74.4742 189.6 74.3926 189.6 74.311C189.519 74.3926 189.519 74.4742 189.437 74.4742C189.356 75.1267 189.274 75.6977 189.193 76.1056C189.274 76.1872 189.356 76.3503 189.437 76.5134C189.437 76.8397 189.274 77.0029 188.949 77.0844C188.786 77.0844 188.623 77.166 188.378 77.2476C188.134 77.2476 187.89 77.3291 187.564 77.3291C187.483 77.3291 187.32 77.4107 187.238 77.4107C187.157 77.4107 187.157 77.4923 187.157 77.4923C187.075 77.737 186.912 77.9001 186.668 77.9817C186.342 77.9817 186.098 77.737 186.017 77.3291C185.935 76.7582 185.935 76.2687 185.854 75.8609C185.772 76.1056 185.609 76.1872 185.528 76.2687C185.528 76.3503 185.365 76.4319 185.202 76.4319C185.039 76.4319 184.958 76.5134 184.876 76.595C184.795 76.6766 184.713 76.8397 184.551 77.0844C184.388 77.4107 184.306 77.5739 184.225 77.5739C184.062 77.5739 183.98 77.4923 183.98 77.4107C184.062 76.9213 184.388 76.024 184.876 74.6373C185.039 74.2294 185.365 73.6585 185.609 72.9243C185.854 72.4349 186.098 71.9455 186.179 71.3745C186.179 71.3745 186.179 71.2929 186.098 71.2929C186.098 71.2929 186.098 71.2929 186.098 71.2113C186.098 71.2113 186.179 71.2113 186.179 71.1297C186.179 71.1297 186.179 71.0482 186.098 71.0482V70.9666C185.935 70.9666 186.017 70.9666 186.098 70.885ZM186.912 76.1872C187.157 76.1872 187.483 76.1056 187.727 76.1056C187.808 75.8609 187.89 75.453 187.971 74.8004C187.971 74.5557 187.808 74.4742 187.483 74.4742C187.238 74.4742 186.994 74.5557 186.831 74.6373C186.831 75.1267 186.831 75.6977 186.912 76.1872ZM192.858 73.4137C193.428 73.3322 193.917 73.2506 194.405 73.2506V71.6192C194.405 71.3745 194.324 71.2929 194.242 71.2929C194.161 71.2929 194.161 71.2929 194.161 71.2113C194.242 71.2113 194.242 71.1297 194.242 71.1297H194.079C193.998 71.1297 193.998 71.0482 193.998 71.0482C194.079 71.0482 194.161 70.9666 194.324 70.8035C194.405 70.6403 194.487 70.4772 194.487 70.3956C193.917 70.4772 193.428 70.4772 192.858 70.5588C192.776 70.5588 192.613 70.5588 192.532 70.6403C192.613 70.6403 192.613 70.7219 192.695 70.7219C193.021 70.9666 193.184 71.2113 193.184 71.3745C193.184 71.5376 193.102 71.6192 193.021 71.7007C192.939 71.8639 192.939 72.027 192.939 72.1086C192.939 72.4349 192.858 73.0059 192.858 73.4137Z" fill="white"/>
<path d="M209.798 67.5408C210.042 67.6223 210.368 67.7855 210.694 68.0302C210.938 68.3565 211.101 68.6012 211.101 68.8459C211.101 69.0906 211.02 69.2538 210.938 69.3353C212.078 69.2538 213.3 69.1722 214.44 69.009C214.685 68.8459 214.929 68.6828 215.092 68.6828C215.499 68.7643 215.743 68.9275 215.988 69.1722C216.314 69.4985 216.476 69.8248 216.476 70.151C216.476 70.6405 216.069 70.8852 215.336 70.8852C215.173 70.9668 215.01 71.1299 214.848 71.293C214.685 71.4562 214.522 71.5377 214.44 71.5377C214.359 71.5377 214.359 71.5377 214.277 71.5377C214.196 71.5377 214.115 71.5377 214.115 71.5377C214.033 71.5377 213.952 71.6193 213.87 71.7009C213.789 71.7825 213.707 71.864 213.626 71.864C213.463 71.864 213.382 71.7825 213.382 71.6193C213.382 71.5378 213.544 71.293 213.789 70.9668C213.952 70.722 214.033 70.5589 214.115 70.3958C214.115 70.2326 214.033 70.151 213.87 70.151C213.463 70.151 213.056 70.2326 212.649 70.2326C212.811 70.3142 212.893 70.4773 212.974 70.6405C212.974 70.722 212.893 70.8036 212.73 70.8852C212.649 70.9668 212.567 71.1299 212.567 71.2115C212.486 71.4562 212.486 71.7825 212.486 72.1903C212.567 72.435 212.73 72.5982 213.056 72.5982C213.544 72.5982 213.952 72.5166 214.196 72.5166C214.44 72.5982 214.603 72.7613 214.685 73.0876C214.685 73.6586 214.033 73.9033 212.73 73.9033C211.671 73.8217 211.101 73.4139 211.101 72.5982C211.183 71.864 211.183 71.3746 211.183 71.2115C211.183 71.0483 211.101 70.9668 211.02 70.9668C210.938 70.9668 210.938 70.8852 210.938 70.8852C211.02 70.8852 211.101 70.8036 211.101 70.722L211.02 70.6405C210.938 70.6405 210.938 70.5589 210.938 70.5589C211.02 70.5589 211.183 70.4773 211.346 70.3958C209.472 70.5589 207.843 70.8036 206.459 71.0483C206.377 71.3746 206.296 71.6193 206.215 71.864C206.052 72.3535 205.644 72.5982 205.156 72.5982C204.749 72.5166 204.504 72.2719 204.504 71.7825C204.667 71.3746 204.83 71.1299 205.074 70.9668C205.4 70.722 205.644 70.3958 205.889 69.9063C206.052 69.4169 206.215 69.1722 206.377 69.1722C206.54 69.1722 206.54 69.2538 206.54 69.3353C206.54 69.4985 206.54 69.58 206.622 69.58C206.622 69.58 206.622 69.6616 206.703 69.6616L206.785 69.7432V69.8248C207.925 69.7432 209.065 69.58 210.124 69.4985C209.961 69.4169 209.88 69.1722 209.798 68.9275C209.554 68.6828 209.309 68.438 209.065 68.2749C208.821 68.1118 208.658 67.9486 208.658 67.9486C208.658 67.7855 208.739 67.7039 208.821 67.7039C208.902 67.7039 208.984 67.7039 209.147 67.7855C209.309 67.7855 209.391 67.7855 209.472 67.7855C209.554 67.7855 209.635 67.7039 209.635 67.7039C209.635 67.6223 209.717 67.5408 209.798 67.5408ZM212.323 74.2296C212.974 74.3112 213.382 74.6375 213.626 75.29C213.626 75.3716 213.544 75.4532 213.463 75.5347C213.219 75.6979 213.137 75.861 213.056 76.0242C212.893 76.5136 212.811 77.0846 212.811 77.7372C212.811 78.6344 213.219 79.0423 214.115 79.0423C214.766 79.0423 215.092 78.3897 215.092 77.003C215.092 76.7583 215.092 76.6767 215.173 76.6767C215.173 76.6767 215.255 76.6767 215.255 76.7583C215.336 76.7583 215.418 77.003 215.418 77.4109C215.418 77.4924 215.499 77.574 215.662 77.6556C215.743 77.7371 215.743 77.8187 215.825 77.9819C215.825 78.0634 215.906 78.2266 215.906 78.3081C215.988 78.3897 216.069 78.4713 216.232 78.5529C216.395 78.716 216.476 78.8791 216.476 79.0423C216.395 79.9396 215.581 80.3474 213.952 80.3474C212.323 80.3474 211.427 79.5317 211.427 77.8187C211.427 77.003 211.59 76.3504 211.671 75.861C211.671 75.6979 211.59 75.6979 211.427 75.6979C210.938 75.6979 210.531 75.7794 210.042 75.861C210.042 76.1057 209.961 76.2689 209.961 76.5136C209.88 77.003 209.635 77.4924 209.391 77.9003C209.147 78.3081 208.902 78.716 208.414 79.1239C207.843 79.6133 207.436 79.858 207.192 79.9396H206.866C206.785 79.9396 206.622 79.9396 206.54 79.9396C206.459 79.9396 206.296 80.0211 206.133 80.2659C205.97 80.5106 205.807 80.5921 205.563 80.5921C205.482 80.5921 205.4 80.5106 205.4 80.3474C205.4 80.1843 205.726 79.858 206.296 79.3686C206.622 79.0423 206.948 78.716 207.273 78.3897C207.681 77.9003 208.006 77.3293 208.169 76.6767C208.251 76.5136 208.332 76.3504 208.332 76.1873C208.006 76.2689 207.681 76.3504 207.436 76.3504C206.866 76.5952 206.459 76.6767 206.133 76.6767C205.97 76.6767 205.807 76.5952 205.726 76.3504C205.563 76.1057 205.482 75.9426 205.482 75.7794C205.482 75.6979 205.563 75.5347 205.807 75.29C205.97 75.0453 206.215 74.8006 206.459 74.6375C206.54 74.6375 206.54 74.6374 206.54 74.719C206.54 74.8006 206.622 74.8822 206.622 74.8822C206.703 74.8822 206.703 74.8006 206.703 74.719C206.785 74.719 206.785 74.719 206.785 74.8006C206.785 74.8822 206.785 74.9637 206.866 74.9637C206.866 74.9637 206.948 74.9637 207.11 74.9637C207.518 74.9637 208.006 74.8822 208.495 74.8006C208.495 74.5559 208.495 74.3927 208.414 74.3112C208.332 74.3112 208.251 74.2296 208.251 74.2296C208.169 74.2296 208.088 74.148 208.088 74.0665C208.169 74.0665 208.169 74.0665 208.169 73.9849L208.088 73.9033C208.006 73.9033 208.006 73.8217 208.006 73.7402C208.169 73.7402 208.414 73.4955 208.739 73.0876C208.902 72.9245 209.147 72.8429 209.391 72.8429C209.554 72.8429 209.717 72.9245 209.88 73.0876C210.124 73.3323 210.287 73.577 210.287 73.7402C210.287 73.9033 210.205 74.0665 210.205 74.2296C210.124 74.3112 210.124 74.4743 210.042 74.5559C210.531 74.4743 210.938 74.4743 211.183 74.3927C211.671 74.3927 211.997 74.3112 212.323 74.2296ZM208.902 70.9668C209.309 71.0483 209.554 71.4562 209.554 72.1903C209.554 72.435 209.391 72.5166 208.984 72.5982C208.739 72.7613 208.495 73.006 208.088 73.3323C207.518 73.7402 207.11 73.9849 206.948 73.9849C206.785 73.9849 206.622 73.9849 206.54 73.9849C206.377 73.9849 206.215 74.0665 206.052 74.148C205.97 74.2296 205.889 74.3112 205.807 74.3112C205.644 74.3112 205.644 74.2296 205.644 74.148C205.807 73.8217 206.133 73.577 206.459 73.2507C207.029 72.8429 207.518 72.435 207.843 72.1087C207.925 72.0272 208.006 71.864 208.006 71.7825C208.006 71.6193 208.006 71.5377 207.925 71.5377C207.843 71.4562 207.843 71.3746 207.843 71.293L208.006 71.2115L207.925 71.0483C208.332 70.9668 208.658 70.9668 208.902 70.9668Z" fill="white"/>
<path d="M225.679 70.5588C225.924 70.5588 226.494 70.4773 227.227 70.3957C227.634 70.3957 227.96 70.3141 228.204 70.0694C228.367 69.9878 228.611 69.9878 228.774 69.9878C229.263 70.151 229.589 70.3957 229.589 70.8036C229.589 71.293 229.426 71.7824 229.181 72.3534C229.019 73.2507 228.856 74.0664 228.611 74.8005C228.53 74.9637 228.286 75.1268 227.96 75.1268C227.634 75.0452 227.471 74.9637 227.471 74.719C227.064 74.719 226.738 74.8005 226.412 74.8005C226.168 74.8821 225.924 74.8821 225.679 74.9637C225.598 74.9637 225.517 75.0452 225.517 75.0452C225.435 75.7794 225.354 76.3504 225.272 76.9214C224.946 78.1449 224.539 78.9607 224.051 79.3685C223.969 79.3685 223.888 79.3685 223.888 79.3685C223.806 79.3685 223.806 79.3685 223.725 79.4501C223.643 79.4501 223.643 79.5316 223.562 79.6948C223.48 79.9395 223.399 80.0211 223.399 80.0211C223.236 80.0211 223.073 79.9395 223.073 79.8579C223.073 79.6132 223.236 79.2054 223.399 78.5528C223.562 77.9818 223.725 77.4108 223.888 76.7582C224.132 75.7794 224.213 74.5558 224.213 73.0875C224.213 72.6797 224.213 72.1903 224.213 71.7824C224.213 71.7008 224.132 71.6193 224.051 71.6193C223.969 71.6193 223.969 71.6193 223.969 71.5377C224.051 71.5377 224.051 71.5377 224.051 71.4561C223.969 71.4561 223.888 71.3746 223.806 71.3746C223.725 71.3746 223.725 71.293 223.725 71.293C223.725 71.2114 223.806 71.1298 223.969 70.9667C224.051 70.8036 224.132 70.6404 224.213 70.3957C224.376 70.2326 224.621 70.151 224.865 70.151C225.272 70.151 225.598 70.3141 225.679 70.5588ZM226.168 67.7039C226.575 67.867 226.983 68.0301 227.308 68.2749C227.634 68.5196 227.797 68.8459 227.797 69.2537C227.797 69.7431 227.471 70.0694 226.901 70.0694C226.657 70.0694 226.412 69.8247 226.168 69.3353C226.005 69.0906 225.924 68.8458 225.761 68.6827C225.517 68.3564 225.354 68.1933 225.354 68.0301C225.354 67.9486 225.354 67.867 225.435 67.867C225.517 67.867 225.598 67.9486 225.598 67.9486C225.679 68.0301 225.679 68.0301 225.761 68.0301C225.842 68.0301 225.924 67.9486 225.924 67.867C226.005 67.7854 226.087 67.7039 226.168 67.7039ZM227.716 73.577C227.716 73.4138 227.716 73.2507 227.797 73.006C227.797 72.5165 227.878 71.9455 227.96 71.4561C227.96 71.3746 227.96 71.293 227.878 71.293C227.308 71.293 226.738 71.3745 226.25 71.5377C226.087 71.6193 225.924 71.7824 225.842 71.7824C225.842 72.2718 225.842 72.8428 225.761 73.3323C225.761 73.4954 225.761 73.6585 225.761 73.7401C225.761 73.7401 225.761 73.8217 225.842 73.8217C225.924 73.8217 226.087 73.8217 226.331 73.7401C226.494 73.7401 226.657 73.6585 226.901 73.6585C227.064 73.6585 227.39 73.6585 227.716 73.577ZM234.801 67.7854C235.29 67.9486 235.616 68.3564 235.86 68.9274C235.86 69.1721 235.778 69.3353 235.534 69.4168C235.29 69.4984 235.045 69.4984 234.72 69.58C234.394 69.7431 233.987 69.9063 233.661 69.9878C233.091 70.2326 232.521 70.3141 231.951 70.3957C231.951 70.4773 231.951 70.5588 231.869 70.6404C231.869 71.2114 231.788 71.7824 231.788 72.3534C231.869 72.2718 231.951 72.2718 232.032 72.1903C232.113 72.1903 232.113 72.1903 232.113 72.2718C232.113 72.3534 232.113 72.3534 232.195 72.3534C232.276 72.3534 232.276 72.3534 232.276 72.2718C232.276 72.2718 232.358 72.2718 232.358 72.3534C232.358 72.3534 232.358 72.435 232.439 72.435C232.521 72.435 232.846 72.435 233.335 72.3534C233.661 72.3534 233.987 72.2718 234.394 72.1903C235.045 72.1087 235.778 72.0271 236.43 72.0271C236.837 72.1087 237 72.3534 237.081 72.7613C237.081 73.1691 236.919 73.3323 236.674 73.3323C236.023 73.3323 235.371 73.4138 234.801 73.4138C235.045 73.577 235.127 73.7401 235.127 73.9848C235.127 74.148 235.127 74.3111 235.045 74.5558C235.045 74.9637 235.045 75.3715 234.964 75.861C234.964 76.8398 234.883 78.1449 234.883 79.7764C234.883 80.3474 234.638 80.6736 234.068 80.6736C233.905 80.6736 233.824 80.5921 233.661 80.5105C233.498 80.3474 233.417 80.2658 233.335 80.1842C233.335 80.0211 233.335 79.6948 233.417 79.1238C233.417 78.5528 233.417 77.9002 233.498 77.0845C233.498 76.0241 233.498 75.1268 233.498 74.5558C233.498 74.4743 233.417 74.3927 233.254 74.3927C233.172 74.3927 233.172 74.3927 233.172 74.3111C233.254 74.3111 233.254 74.3111 233.254 74.2295L233.172 74.148C233.091 74.148 233.091 74.0664 233.091 73.9848C233.172 73.9848 233.254 73.9033 233.335 73.8217C233.417 73.7401 233.498 73.6585 233.498 73.4954C233.254 73.577 233.009 73.577 232.846 73.6585C232.521 73.7401 232.195 73.7401 231.869 73.8217C231.788 73.8217 231.788 73.8217 231.706 73.8217C231.625 74.8005 231.462 75.7794 231.299 76.5951C230.892 77.9818 230.403 78.8791 229.752 79.2869C229.67 79.2869 229.589 79.2869 229.507 79.2869C229.426 79.2869 229.344 79.2869 229.344 79.3685C229.263 79.4501 229.181 79.5316 229.1 79.6132C229.019 79.8579 228.937 79.9395 228.856 79.9395C228.693 79.9395 228.611 79.8579 228.611 79.7764C228.693 79.5317 228.856 79.0422 229.181 78.3081C229.507 77.6555 229.752 77.0029 229.996 76.3504C230.322 75.2084 230.485 73.8217 230.485 72.1903C230.485 71.7008 230.485 71.2114 230.485 70.8036C230.485 70.722 230.403 70.722 230.24 70.6404C230.159 70.6404 230.159 70.6404 230.159 70.5588C230.24 70.5588 230.24 70.4773 230.24 70.4773C230.159 70.4773 230.077 70.3957 229.996 70.3957C229.914 70.3957 229.914 70.3141 229.914 70.2326C229.996 70.151 230.077 70.0694 230.159 69.9878C230.24 69.8247 230.322 69.58 230.403 69.4168C230.647 69.2537 230.81 69.1721 231.136 69.1721C231.625 69.2537 231.869 69.4168 232.032 69.6616C232.439 69.4984 232.846 69.2537 233.172 69.009C233.498 68.8458 233.661 68.6827 233.742 68.6011C233.742 68.5196 233.742 68.5196 233.661 68.5196C233.661 68.5196 233.661 68.438 233.661 68.3564C233.742 68.3564 233.824 68.3564 233.824 68.2749C233.824 68.1933 233.824 68.1933 233.742 68.1117C233.661 68.1117 233.661 68.1117 233.661 68.0301C233.661 67.9486 233.905 67.867 234.394 67.867C234.394 67.7854 234.638 67.7854 234.801 67.7854Z" fill="white"/>
</g>
<defs>
<clipPath id="clip0_296_12923">
<rect width="237" height="81" fill="white"/>
</clipPath>
</defs>
</svg>
